,target,in_database,match_count_0,total_match_count_0,match_count_1,total_match_count_1,match_count_2,total_match_count_2,match_count_3,total_match_count_3,match_count_4,total_match_count_4,match_count_5,total_match_count_5,match_count_6,total_match_count_6,match_count_7,total_match_count_7,match_count_8,total_match_count_8,match_count_9,total_match_count_9
0,1,1,10,28,3,19,3,17,3,17,3,17,3,16,3,16,3,16,2,16,2,16
1,1,1,38,122,3,24,3,17,3,17,3,17,3,16,3,16,3,15,3,15,3,15
2,1,1,4,8,3,8,3,8,3,8,2,8,2,7,2,7,2,7,2,7,2,7
3,1,1,14,40,3,25,3,24,3,23,3,23,3,22,2,21,2,20,2,20,2,19
4,1,1,5,15,2,9,2,9,2,8,2,8,2,8,2,7,2,7,2,7,2,7
5,1,1,8,30,3,18,3,18,3,17,3,17,3,16,3,16,3,16,3,16,2,16
6,1,1,5,15,3,10,3,10,3,9,3,9,3,9,3,9,2,9,2,9,2,9
7,1,1,4,30,3,25,3,24,3,23,3,23,3,21,3,21,3,21,3,20,3,20
8,1,1,8,26,3,11,3,10,3,10,3,10,3,10,3,9,3,9,3,8,2,8
9,1,1,6,17,4,15,3,15,3,15,3,14,3,14,3,14,3,14,3,14,2,14
10,0,1,3,19,3,19,3,18,3,17,3,17,3,16,3,16,3,16,3,16,3,16
11,0,1,3,9,2,9,2,8,2,8,2,7,2,7,2,7,2,6,2,6,2,6
12,1,1,25,31,4,16,3,15,3,14,3,14,3,13,3,13,2,13,2,13,2,12
13,0,1,3,8,2,7,2,7,2,6,2,6,2,6,2,6,2,6,2,6,2,6
14,0,1,3,11,3,10,3,10,2,9,2,9,2,8,2,8,2,8,2,8,2,8
15,0,1,2,8,2,7,2,7,2,7,2,7,2,6,2,6,2,6,2,6,2,6
16,1,1,7,34,3,27,3,20,3,20,3,20,3,19,3,19,3,19,3,19,3,17
17,1,1,10,26,3,12,3,12,3,10,3,10,3,9,3,9,2,9,2,9,2,9
18,0,1,3,11,3,10,2,9,2,8,2,8,2,8,2,8,2,8,2,7,2,7
19,1,1,24,42,3,18,3,18,3,14,3,14,3,13,2,13,2,13,2,13,2,13
20,0,1,3,10,2,8,2,8,2,8,2,7,2,7,2,7,2,7,2,7,2,7
21,0,1,3,7,2,6,2,5,2,5,2,5,2,5,2,5,2,4,2,4,2,4
22,1,1,9,25,3,24,3,19,3,17,3,17,3,17,3,16,3,16,3,15,3,15
23,0,1,3,8,3,8,3,8,2,8,2,7,2,7,2,7,2,7,2,7,2,7
24,1,1,4,8,3,8,2,7,2,7,2,7,2,7,2,7,2,7,2,7,2,6
25,1,1,4,18,3,15,3,15,3,14,3,14,3,13,3,13,3,13,3,12,3,12
26,0,1,3,10,3,10,2,7,2,7,2,7,2,7,2,7,2,7,2,7,2,7
27,0,1,3,11,3,11,3,10,3,10,2,10,2,10,2,10,2,10,2,10,2,9
28,0,1,1,3,1,3,1,3,1,3,1,2,1,2,1,2,1,2,1,2,1,2
29,0,1,3,6,3,6,2,5,2,5,2,5,2,5,2,5,2,5,2,5,2,5
30,1,1,3,9,2,8,2,8,2,7,2,7,2,7,2,7,2,6,2,6,2,6
31,0,1,3,17,3,12,2,12,2,12,2,11,2,11,2,10,2,10,2,10,2,10
32,1,1,14,22,3,10,3,10,2,9,2,9,2,8,2,8,2,8,2,8,2,8
33,1,1,8,28,3,16,3,16,3,13,3,11,3,11,2,11,2,11,2,11,2,11
34,1,1,4,16,2,7,2,7,2,6,2,6,2,6,2,6,2,6,2,6,2,6
35,1,1,7,20,3,19,3,18,3,16,3,16,3,16,3,16,2,16,2,16,2,16
36,1,1,9,17,3,10,3,9,3,9,3,9,2,9,2,8,2,8,2,8,2,8
37,1,1,16,28,3,15,3,14,3,14,3,13,3,12,3,12,3,11,3,11,3,11
38,1,1,11,16,3,12,3,12,3,12,3,11,3,11,3,11,3,10,3,10,2,10
39,1,1,6,10,3,9,3,9,3,8,2,8,2,8,2,8,2,8,2,8,2,8
40,1,1,19,75,3,17,3,14,3,13,3,13,2,12,2,12,2,12,2,12,2,12
41,1,1,10,38,3,10,3,9,3,9,3,8,3,8,3,8,2,8,2,7,2,7
42,1,1,23,27,3,11,3,10,2,10,2,10,2,10,2,10,2,9,2,9,2,9
43,0,1,2,10,2,9,2,8,2,7,2,7,2,7,2,7,2,7,2,6,2,6
44,0,1,3,8,3,7,3,7,2,7,2,6,2,6,2,6,2,6,2,6,2,6
45,0,1,3,8,3,8,2,8,2,8,2,8,2,8,2,7,2,7,2,7,2,7
46,1,1,6,19,3,15,3,15,3,15,3,14,3,14,3,14,3,13,3,13,3,13
47,1,1,8,19,3,10,3,8,3,8,2,7,2,7,2,7,2,7,2,7,2,7
48,1,1,14,34,3,15,3,14,2,14,2,14,2,13,2,13,2,13,2,13,2,12
49,1,1,5,10,2,10,2,9,2,9,2,9,2,9,2,8,2,8,2,8,2,8
50,1,1,22,36,3,13,2,12,2,11,2,11,2,11,2,10,2,10,2,10,2,10
51,1,1,16,35,3,16,3,16,3,15,3,15,3,14,3,14,3,14,3,14,2,14
52,0,1,3,19,3,18,3,17,3,17,3,17,3,17,3,17,3,16,3,16,3,15
53,1,1,6,20,3,17,3,17,3,17,3,16,3,16,3,16,3,16,2,15,2,15
54,1,1,7,27,3,20,3,18,3,17,3,16,3,16,3,16,3,15,3,15,2,15
55,1,1,5,24,3,16,3,16,3,15,3,15,3,15,2,15,2,15,2,14,2,14
56,1,1,5,15,3,12,3,12,3,12,3,11,3,11,3,11,3,11,3,11,2,11
57,1,1,3,10,2,7,2,7,2,7,2,7,2,6,2,6,2,6,2,6,2,6
58,0,1,3,10,3,9,3,8,3,8,3,7,2,7,2,7,2,7,2,7,2,7
59,0,1,2,8,2,8,2,8,2,8,2,8,2,7,2,7,2,7,2,7,2,7
60,1,1,6,40,3,34,3,28,3,25,3,22,3,22,3,21,3,20,3,20,3,20
61,0,1,3,10,2,7,2,7,2,6,2,5,2,5,2,5,2,5,2,5,2,5
62,1,1,11,26,3,11,3,11,3,11,2,10,2,10,2,10,2,10,2,10,2,9
63,1,1,6,13,3,12,3,11,2,11,2,10,2,9,2,9,2,9,2,9,2,9
64,0,1,3,18,3,9,2,9,2,9,2,9,2,8,2,8,2,8,2,8,2,8
65,1,1,6,9,3,8,2,8,2,7,2,7,2,7,2,7,2,7,2,7,2,7
66,1,1,9,21,3,16,2,13,2,12,2,12,2,12,2,12,2,12,2,11,2,11
67,0,1,3,23,3,7,2,6,2,6,2,6,2,6,2,5,2,5,2,5,2,5
68,1,1,4,21,3,17,3,16,3,15,3,14,3,14,3,14,2,14,2,13,2,13
69,0,1,4,17,3,15,3,14,3,13,3,13,3,13,3,12,3,12,2,12,2,12
70,1,1,7,15,3,12,3,11,3,11,2,11,2,10,2,10,2,10,2,9,2,9
71,1,1,36,85,3,19,3,19,3,18,3,17,3,17,3,17,3,17,3,17,3,16
72,1,1,5,17,3,16,3,14,3,13,3,12,3,12,3,12,2,12,2,11,2,11
73,1,1,6,10,3,9,3,8,3,6,2,6,2,6,2,6,2,6,2,6,2,6
74,1,1,4,9,3,8,3,8,3,8,2,7,2,7,2,7,2,7,2,7,2,6
75,1,1,25,106,3,27,3,27,3,26,3,26,3,25,3,25,3,25,3,24,3,24
76,1,1,11,76,3,25,3,18,3,17,3,17,3,17,3,17,3,17,3,16,3,15
77,1,1,6,16,3,16,3,15,3,13,2,13,2,13,2,13,2,13,2,13,2,13
78,1,1,24,51,4,19,4,17,3,16,3,16,3,16,3,16,2,16,2,15,2,15
79,1,1,15,30,3,20,3,19,3,18,3,17,3,16,3,16,2,16,2,15,2,15
80,1,1,11,16,3,10,3,9,3,9,3,9,3,9,2,9,2,8,2,8,2,8
81,1,1,7,24,4,22,3,21,3,20,3,20,3,19,3,19,3,18,2,18,2,18
82,1,1,10,38,3,10,3,9,2,9,2,9,2,9,2,9,2,8,2,8,2,8
83,0,1,3,10,3,6,3,6,2,6,2,6,2,6,2,6,2,6,2,6,2,6
84,0,1,3,15,3,14,3,13,2,12,2,11,2,11,2,11,2,10,2,10,2,10
85,1,1,11,28,3,13,2,11,2,11,2,10,2,10,2,10,2,10,2,9,2,9
86,0,1,2,14,2,9,2,7,2,7,2,7,2,7,2,6,2,6,2,6,2,6
87,1,1,5,15,3,10,3,9,2,8,2,8,2,8,2,8,2,8,2,8,2,8
88,1,1,38,69,3,50,3,29,3,28,3,27,3,26,3,25,3,24,3,24,3,24
89,1,1,15,28,4,25,3,21,3,18,3,18,3,18,3,18,3,17,3,17,3,17
90,0,1,3,16,2,13,2,12,2,11,2,10,2,10,2,10,2,10,2,10,2,10
91,0,1,3,12,3,11,3,11,3,10,2,10,2,10,2,9,2,9,2,9,2,9
92,0,1,3,14,3,13,3,13,3,12,3,12,3,12,2,12,2,12,2,11,2,11
93,0,1,2,8,2,7,2,7,2,7,2,7,2,6,2,6,2,6,2,6,2,6
94,1,1,4,11,3,10,3,9,2,9,2,9,2,9,2,9,2,9,2,8,2,8
95,1,1,8,25,3,20,3,19,3,18,3,18,3,18,3,17,3,17,3,17,3,17
96,0,1,3,18,3,17,3,16,3,16,3,15,3,15,3,14,2,14,2,14,2,14
97,0,1,7,21,5,16,3,16,3,14,3,14,3,14,3,14,3,14,3,13,2,13
98,1,1,15,49,4,24,3,24,3,23,3,22,3,21,3,21,3,21,3,20,3,20
99,1,1,10,31,3,14,3,12,2,11,2,11,2,11,2,11,2,11,2,10,2,10
100,1,1,9,24,3,15,3,15,3,14,3,13,3,13,3,13,3,12,2,12,2,12
101,1,1,5,20,3,17,3,17,3,16,3,16,3,15,3,14,2,14,2,14,2,14
102,1,1,14,52,3,19,3,18,3,18,3,17,3,17,3,16,3,16,3,16,3,16
103,0,1,3,22,3,12,3,11,3,11,2,11,2,11,2,9,2,9,2,9,2,9
104,0,1,3,11,3,11,2,10,2,10,2,10,2,10,2,10,2,10,2,9,2,9
105,0,1,3,16,3,14,3,14,3,13,3,13,2,13,2,13,2,13,2,13,2,13
106,1,1,8,22,3,14,3,13,3,13,3,11,3,11,2,11,2,11,2,11,2,10
107,1,1,16,45,3,18,3,17,3,17,3,15,3,14,3,14,3,14,2,14,2,14
108,1,1,5,11,3,11,2,10,2,9,2,8,2,8,2,8,2,8,2,8,2,8
109,0,1,3,7,3,7,2,7,2,7,2,6,2,6,2,6,2,6,2,6,2,6
110,1,1,5,13,3,11,2,10,2,10,2,10,2,10,2,9,2,9,2,9,2,9
111,1,1,19,26,4,16,3,16,3,15,3,14,3,14,3,13,2,12,2,12,2,12
112,0,1,3,13,3,12,3,12,3,12,3,11,2,11,2,11,2,11,2,11,2,11
113,0,1,3,6,3,6,3,6,2,6,2,5,2,5,2,5,2,5,2,5,2,5
114,1,1,12,24,3,9,3,8,3,8,2,8,2,8,2,7,2,7,2,7,2,7
115,1,1,4,14,3,9,2,8,2,8,2,8,2,7,2,7,2,7,2,7,2,7
116,1,1,7,20,4,14,3,14,3,14,3,13,2,13,2,12,2,12,2,12,2,12
117,1,1,5,10,3,10,2,9,2,9,2,8,2,8,2,8,2,8,2,8,2,8
118,1,1,6,31,3,26,3,20,3,18,3,17,3,17,3,17,3,16,3,16,3,15
119,0,1,3,10,3,8,3,8,2,8,2,7,2,7,2,7,2,7,2,7,2,7
120,1,1,7,17,4,15,3,15,3,14,3,13,3,13,3,12,3,12,3,12,2,12
121,0,1,3,10,2,10,2,8,2,8,2,7,2,7,2,7,2,7,2,7,2,7
122,1,1,4,13,3,13,3,12,3,12,3,11,3,11,3,11,3,11,3,11,3,11
123,0,1,3,9,3,8,3,8,3,8,2,8,2,8,2,7,2,7,2,7,2,7
124,1,1,13,19,2,12,2,11,2,11,2,10,2,10,2,10,2,9,2,9,2,9
125,1,1,6,26,3,17,3,17,3,15,3,15,3,14,3,14,3,14,2,14,2,14
126,1,1,9,29,3,10,3,10,3,9,3,9,2,9,2,9,2,9,2,9,2,8
127,1,1,17,75,3,20,3,18,3,17,3,15,3,15,3,15,3,15,2,14,2,13
128,0,1,3,19,3,18,3,16,3,16,3,16,3,16,3,15,2,15,2,15,2,15
129,1,1,12,28,3,21,3,15,2,15,2,14,2,13,2,13,2,13,2,12,2,12
130,1,1,5,30,3,19,3,17,3,16,3,16,3,16,3,15,3,15,3,15,3,15
131,1,1,23,46,3,20,3,19,3,19,3,19,3,17,3,17,3,17,3,16,3,16
132,0,1,4,16,4,15,3,15,3,15,3,15,3,15,3,15,3,14,3,14,2,14
133,1,1,29,38,3,16,3,13,3,13,3,13,2,12,2,11,2,11,2,11,2,11
134,1,1,24,61,3,22,3,21,3,18,3,17,3,17,3,17,3,16,3,16,3,16
135,1,1,5,13,3,11,2,10,2,9,2,8,2,8,2,8,2,8,2,8,2,8
136,0,1,3,17,3,16,3,14,3,14,3,14,3,14,2,14,2,12,2,12,2,12
137,0,1,3,9,3,8,2,8,2,8,2,8,2,8,2,7,2,7,2,7,2,7
138,1,1,22,35,3,17,3,16,3,16,3,15,3,14,3,14,2,14,2,14,2,13
139,0,1,3,14,3,11,3,10,2,10,2,10,2,10,2,10,2,10,2,10,2,9
140,1,1,30,50,3,19,3,16,3,16,3,15,3,15,3,14,3,14,3,14,3,14
141,1,1,16,47,3,16,3,13,3,12,3,12,3,12,2,12,2,12,2,12,2,11
142,1,1,6,13,3,12,3,11,3,11,3,11,2,11,2,11,2,10,2,10,2,10
143,1,1,8,54,3,17,3,14,3,14,3,13,3,13,2,13,2,13,2,12,2,12
144,0,1,2,7,2,7,2,7,2,7,2,7,2,7,2,7,2,7,2,6,2,6
145,0,1,3,10,3,9,2,9,2,9,2,9,2,9,2,8,2,8,2,8,2,7
146,0,1,3,9,3,9,3,8,2,8,2,8,2,7,2,7,2,7,2,7,2,7
147,1,1,6,11,3,10,2,8,2,8,2,7,2,7,2,7,2,7,2,7,2,7
148,0,1,3,13,3,11,3,10,3,9,3,9,3,8,3,8,2,8,2,8,2,8
149,1,1,4,11,3,11,3,10,3,10,2,10,2,10,2,9,2,9,2,9,2,9
150,0,1,3,8,3,8,3,7,2,7,2,7,2,7,2,7,2,7,2,7,2,7
151,0,1,3,10,3,9,3,9,2,9,2,9,2,9,2,9,2,9,2,8,2,8
152,1,1,41,83,3,15,3,14,3,13,3,13,2,13,2,13,2,13,2,13,2,12
153,0,1,3,10,2,8,2,8,2,8,2,8,2,7,2,7,2,7,2,7,2,7
154,0,1,2,9,2,8,2,7,2,7,2,7,2,7,2,7,2,7,2,7,2,7
155,0,1,3,15,3,14,3,13,3,12,3,12,3,11,2,11,2,11,2,11,2,11
156,1,1,16,23,3,9,2,9,2,8,2,8,2,8,2,8,2,7,2,7,2,7
157,0,1,3,15,3,13,3,12,2,11,2,11,2,11,2,10,2,10,2,10,2,10
158,1,1,13,36,3,20,3,18,3,17,3,16,3,16,3,16,3,15,3,15,3,15
159,1,1,42,68,3,20,3,19,3,18,3,16,3,16,3,16,3,16,3,15,2,15
160,1,1,12,25,3,16,3,14,3,13,3,13,3,13,3,13,3,12,2,12,2,12
161,0,1,4,29,4,13,3,12,3,12,3,12,3,12,3,11,3,11,3,11,3,11
162,1,1,9,38,3,22,3,17,3,17,3,16,3,16,3,16,3,15,3,15,3,15
163,0,1,3,22,3,22,3,14,2,14,2,13,2,13,2,13,2,13,2,12,2,12
164,1,1,16,60,3,22,3,20,3,19,3,18,3,18,3,18,3,18,2,17,2,17
165,1,1,16,60,3,18,3,16,3,15,3,14,3,14,3,14,2,14,2,13,2,13
166,0,1,4,45,3,25,3,21,3,19,3,19,3,19,3,19,3,18,3,18,3,18
167,0,1,3,9,3,9,3,9,2,9,2,8,2,8,2,7,2,7,2,7,2,7
168,1,1,26,35,3,19,3,16,3,16,3,16,3,14,3,14,2,13,2,12,2,12
169,1,1,5,16,2,7,2,7,2,7,2,7,2,7,2,7,2,7,2,6,2,6
170,1,1,15,26,3,13,3,13,3,12,2,12,2,11,2,11,2,11,2,10,2,10
171,1,1,8,11,3,8,2,7,2,7,2,7,2,7,2,7,2,7,2,7,2,7
172,1,1,5,13,3,13,3,13,2,12,2,12,2,12,2,12,2,12,2,12,2,12
173,1,1,11,35,3,13,3,12,3,12,3,12,2,12,2,12,2,11,2,11,2,11
174,0,1,3,10,3,10,3,10,3,10,2,10,2,9,2,9,2,9,2,9,2,9
175,1,1,5,25,3,19,3,17,3,17,3,16,3,15,3,15,3,15,3,15,3,15
176,1,1,25,40,3,16,3,14,3,13,2,13,2,13,2,13,2,12,2,12,2,12
177,1,1,7,57,3,18,3,18,3,18,2,17,2,16,2,16,2,16,2,16,2,16
178,1,1,7,139,3,33,3,31,3,28,3,28,3,28,3,26,3,25,2,24,2,23
179,0,1,3,14,2,12,2,11,2,11,2,11,2,11,2,11,2,11,2,10,2,10
180,0,1,3,8,2,8,2,7,2,7,2,7,2,7,2,7,2,7,2,7,2,7
181,1,1,7,16,3,12,3,11,3,10,2,9,2,9,2,9,2,9,2,8,2,8
182,1,1,14,38,3,13,3,12,3,11,3,11,2,11,2,11,2,11,2,11,2,11
183,1,1,4,10,3,8,3,7,3,7,2,7,2,7,2,7,2,7,2,7,2,7
184,1,1,4,16,3,14,3,13,3,12,3,12,3,12,3,11,2,11,2,11,2,11
185,1,1,20,32,3,14,3,14,3,13,3,13,3,12,2,12,2,12,2,12,2,11
186,1,1,8,16,3,9,3,8,3,8,3,8,2,8,2,8,2,7,2,7,2,7
187,1,1,4,11,3,8,3,8,2,8,2,8,2,7,2,7,2,7,2,7,2,6
188,1,1,10,24,3,15,3,12,3,11,2,11,2,11,2,11,2,11,2,10,2,10
189,1,1,22,31,4,13,3,13,3,13,2,13,2,12,2,12,2,11,2,11,2,11
190,0,1,3,8,3,8,2,7,2,7,2,7,2,7,2,7,2,6,2,6,2,6
191,1,1,27,40,3,24,3,15,3,15,3,14,3,14,2,14,2,14,2,13,2,13
192,1,1,16,22,3,12,3,10,2,10,2,10,2,9,2,9,2,9,2,8,2,8
193,1,1,4,15,3,14,2,14,2,12,2,11,2,11,2,11,2,11,2,11,2,11
194,1,1,9,17,2,11,2,9,2,9,2,9,2,9,2,8,2,8,2,8,2,8
195,0,1,3,7,2,7,2,7,2,7,2,7,2,6,2,6,2,6,2,6,2,6
196,0,1,3,9,2,8,2,8,2,8,2,8,2,7,2,7,2,7,2,7,2,7
197,1,1,8,15,3,9,2,8,2,8,2,7,2,7,2,7,2,7,2,7,2,7
198,1,1,13,35,3,10,3,9,2,9,2,9,2,9,2,8,2,8,2,8,2,8
199,0,1,3,15,3,10,3,10,3,10,3,9,2,9,2,9,2,9,2,9,2,9
200,0,1,3,20,3,17,3,16,3,15,3,15,3,14,2,13,2,13,2,13,2,13
201,0,1,2,6,2,5,2,5,2,4,2,4,2,4,2,4,2,4,2,4,2,4
202,0,1,2,9,2,7,2,7,2,6,2,6,2,6,2,6,2,6,2,6,2,6
203,1,1,4,7,3,6,2,6,2,5,2,5,2,5,2,5,2,5,2,5,2,5
204,1,1,11,32,3,23,3,21,3,19,3,18,3,17,3,17,3,15,2,15,2,15
205,0,1,4,11,3,10,3,9,2,9,2,9,2,8,2,8,2,8,2,8,2,8
206,1,1,7,12,3,11,3,11,3,11,3,11,3,10,3,10,3,10,2,10,2,10
207,1,1,6,12,2,9,2,9,2,9,2,9,2,8,2,8,2,8,2,8,2,8
208,1,1,11,26,2,12,2,11,2,11,2,10,2,10,2,10,2,9,2,9,2,9
209,1,1,5,14,3,9,2,9,2,8,2,8,2,8,2,8,2,8,2,8,2,8
210,0,1,3,22,3,21,3,21,3,21,3,20,3,19,3,19,3,19,3,18,3,17
211,1,1,9,24,3,13,3,13,3,12,2,12,2,12,2,12,2,12,2,11,2,11
212,0,1,2,12,2,11,2,10,2,8,2,8,2,7,2,7,2,7,2,7,2,7
213,0,1,3,14,3,11,3,10,3,10,3,10,3,10,3,10,3,9,3,9,2,9
214,1,1,7,14,3,11,3,9,3,8,2,8,2,8,2,8,2,8,2,8,2,7
215,1,1,4,29,3,23,3,21,3,20,3,20,3,20,3,20,3,19,3,19,3,18
216,1,1,10,16,2,9,2,9,2,9,2,9,2,9,2,8,2,8,2,8,2,8
217,1,1,7,17,3,13,3,13,3,11,3,11,2,11,2,10,2,10,2,10,2,10
218,0,1,3,14,3,12,3,10,3,10,3,9,2,9,2,9,2,9,2,8,2,8
219,1,1,22,31,3,12,3,11,3,11,3,11,3,11,3,11,3,10,3,10,2,10
220,0,1,3,10,3,9,3,9,3,8,2,8,2,8,2,8,2,8,2,8,2,8
221,0,1,2,13,2,11,2,10,2,10,2,10,2,9,2,9,2,9,2,9,2,9
222,0,1,3,38,3,28,3,20,3,20,3,17,3,17,3,17,2,16,2,16,2,16
223,1,1,5,17,3,13,3,13,3,12,2,12,2,11,2,11,2,11,2,11,2,11
224,1,1,27,50,3,18,3,15,2,15,2,15,2,14,2,14,2,14,2,14,2,14
225,1,1,4,9,2,9,2,7,2,7,2,7,2,7,2,7,2,6,2,6,2,6
226,0,1,3,11,3,7,3,7,2,7,2,6,2,6,2,6,2,6,2,6,2,6
227,1,1,6,39,3,11,3,10,3,10,2,9,2,9,2,9,2,9,2,9,2,9
228,0,1,3,7,3,7,2,7,2,7,2,6,2,6,2,6,2,6,2,6,2,6
229,1,1,20,61,3,14,3,13,3,13,2,12,2,12,2,12,2,12,2,11,2,11
230,1,1,9,18,2,13,2,13,2,12,2,11,2,11,2,11,2,11,2,11,2,11
231,1,1,14,21,3,10,3,10,2,10,2,9,2,9,2,9,2,9,2,9,2,9
232,1,1,17,24,3,12,2,12,2,10,2,9,2,9,2,9,2,9,2,9,2,9
233,1,1,12,23,3,21,3,18,3,17,3,17,3,16,3,16,3,16,3,16,3,15
234,0,1,3,7,3,7,3,7,3,6,2,6,2,6,2,6,2,6,2,6,2,5
235,1,1,4,20,3,14,3,14,3,14,3,14,3,14,3,14,3,14,3,14,3,13
236,0,1,3,7,2,7,2,6,2,6,2,6,2,6,2,6,2,6,2,6,2,6
237,1,1,4,12,3,11,3,11,3,10,2,10,2,10,2,10,2,10,2,9,2,9
238,1,1,8,21,3,18,3,16,3,16,3,15,3,15,3,15,3,15,3,15,3,14
239,0,1,2,6,2,6,2,6,2,6,2,6,2,6,2,5,2,5,2,5,2,5
240,1,1,7,14,3,14,2,12,2,10,2,10,2,9,2,9,2,9,2,9,2,8
241,0,1,3,17,3,16,2,15,2,14,2,13,2,13,2,13,2,13,2,12,2,12
242,1,1,32,46,3,16,3,12,3,12,3,11,3,11,2,11,2,11,2,11,2,11
243,1,1,16,55,3,20,3,19,3,18,3,18,3,17,3,17,3,17,3,16,3,16
244,1,1,14,19,3,9,2,9,2,8,2,8,2,8,2,7,2,7,2,7,2,7
245,0,1,3,5,2,5,2,5,2,5,2,4,2,4,1,4,1,4,1,4,1,4
246,0,1,3,5,2,5,2,5,2,5,2,5,2,4,2,4,2,4,2,4,2,4
247,1,1,4,12,3,8,3,8,2,8,2,8,2,7,2,7,2,7,2,7,2,7
248,1,1,5,22,3,11,3,11,3,10,3,10,3,10,3,10,2,10,2,10,2,10
249,1,1,15,58,3,20,3,12,3,12,3,11,2,11,2,10,2,10,2,10,2,10
250,1,1,6,9,3,7,3,7,2,6,2,5,2,5,2,5,2,5,2,5,2,5
251,1,1,6,7,3,6,2,6,2,6,2,6,2,6,2,6,2,6,2,5,2,5
252,0,1,2,8,2,8,2,7,2,6,2,6,2,6,2,6,2,6,2,6,2,6
253,0,1,3,17,3,16,3,14,3,12,2,12,2,12,2,12,2,11,2,11,2,11
254,0,1,3,8,3,7,3,6,2,6,2,6,2,6,2,5,2,5,2,5,2,5
255,0,1,3,7,2,7,2,7,2,7,2,6,2,6,2,6,2,6,2,6,2,6
256,0,1,3,17,3,15,3,14,3,14,2,14,2,13,2,12,2,12,2,12,2,12
257,0,1,3,13,2,10,2,10,2,10,2,10,2,10,2,10,2,9,2,9,2,9
258,1,1,3,9,2,7,2,6,2,6,2,6,2,6,2,6,2,6,2,6,2,6
259,1,1,5,21,3,17,3,17,2,17,2,16,2,16,2,16,2,16,2,15,2,15
260,1,1,6,20,3,18,2,17,2,16,2,15,2,15,2,15,2,14,2,14,2,13
261,0,1,3,7,2,7,2,7,2,7,2,7,2,7,2,7,2,6,2,6,2,6
262,1,1,6,10,3,9,2,7,2,7,2,7,2,7,2,7,2,7,2,7,2,7
263,0,1,3,14,3,12,3,11,2,11,2,11,2,10,2,10,2,10,2,9,2,9
264,1,1,5,16,3,14,3,13,3,13,3,13,3,13,3,13,2,12,2,12,2,12
265,0,1,3,19,3,15,3,15,3,14,3,14,3,13,2,12,2,12,2,12,2,12
266,0,1,3,17,3,14,3,12,3,12,3,12,2,12,2,12,2,12,2,11,2,11
267,1,1,22,43,3,16,3,15,3,14,3,14,3,14,3,13,2,13,2,12,2,12
268,1,1,5,8,3,8,2,7,2,7,2,7,2,6,2,6,2,6,2,6,2,6
269,1,1,7,9,3,9,3,8,2,7,2,7,2,7,2,7,2,6,2,6,2,6
270,1,1,11,19,3,17,3,15,3,11,3,10,2,10,2,10,2,10,2,9,2,9
271,1,1,6,12,4,11,3,11,3,10,3,9,2,9,2,9,2,9,2,9,2,9
272,1,1,6,23,3,19,3,17,3,17,3,17,3,16,3,16,3,16,2,16,2,16
273,1,1,6,9,3,8,2,8,2,8,2,8,2,8,2,7,2,7,2,7,2,7
274,1,1,54,104,3,28,3,23,3,22,3,22,3,21,3,21,3,21,3,21,3,20
275,0,1,3,8,2,7,2,7,2,7,2,7,2,6,2,6,2,6,2,6,2,6
276,0,1,2,7,2,6,2,6,2,6,2,6,2,6,2,6,2,6,2,5,2,5
277,1,1,15,19,3,16,3,13,2,11,2,10,2,10,2,9,2,9,2,9,2,9
278,1,1,8,20,3,20,3,19,3,18,3,17,3,17,3,17,3,16,3,16,3,15
279,0,1,3,7,3,6,2,6,2,6,2,6,2,6,2,5,2,5,2,5,2,5
280,1,1,8,15,3,11,3,10,3,10,2,10,2,9,2,9,2,9,2,9,2,9
281,1,1,8,22,3,17,3,15,3,14,3,13,2,12,2,12,2,12,2,12,2,11
282,0,1,3,10,3,10,2,9,2,9,2,9,2,9,2,9,2,8,2,8,2,8
283,1,1,17,35,3,25,3,14,3,12,2,12,2,11,2,11,2,11,2,11,2,11
284,1,1,18,29,3,14,2,13,2,13,2,13,2,12,2,12,2,12,2,12,2,11
285,1,1,6,20,3,17,3,17,2,16,2,15,2,14,2,14,2,13,2,13,2,13
286,1,1,4,12,3,9,3,8,3,8,2,8,2,8,2,8,2,8,2,7,2,7
287,1,1,10,37,3,26,3,17,3,17,3,16,3,15,3,15,3,14,3,14,3,14
288,1,1,7,24,3,17,3,16,3,15,3,15,3,15,3,14,3,14,3,14,2,13
289,1,1,4,16,3,16,3,16,3,14,3,14,3,14,3,13,3,12,2,12,2,11
290,1,1,14,33,3,24,3,19,3,19,3,18,3,18,3,18,3,17,3,17,3,16
291,0,1,3,7,2,6,2,5,2,5,2,5,2,5,2,5,2,5,2,5,2,5
292,1,1,6,17,3,11,3,10,3,10,2,10,2,10,2,10,2,10,2,10,2,9
293,0,1,3,9,2,9,2,9,2,8,2,7,2,7,2,7,2,7,2,7,2,7
294,0,1,3,11,3,9,3,9,3,9,2,8,2,8,2,8,2,8,2,8,2,8
295,1,1,9,17,3,13,3,9,3,8,2,8,2,7,2,7,2,7,2,7,2,7
296,1,1,15,35,4,17,3,16,3,16,3,15,3,15,3,14,3,13,3,13,3,13
297,1,1,21,45,3,26,3,20,3,18,3,17,3,16,3,16,2,15,2,15,2,15
298,0,1,2,8,2,8,2,8,2,7,2,7,2,6,2,6,2,5,2,5,2,5
299,0,1,3,47,3,20,3,19,3,19,3,18,3,18,2,17,2,17,2,17,2,16
300,1,1,13,25,3,15,3,15,3,14,3,14,2,14,2,14,2,14,2,13,2,13
301,1,1,4,22,3,12,3,11,3,10,3,10,3,9,3,8,2,8,2,8,2,7
302,1,1,22,61,3,20,3,19,3,18,3,17,3,17,3,17,3,16,3,16,3,15
303,0,1,3,11,3,11,2,10,2,10,2,9,2,9,2,9,2,9,2,8,2,8
304,0,1,4,13,3,10,3,10,3,10,3,10,3,9,3,9,2,9,2,9,2,9
305,0,1,3,14,3,13,3,13,3,11,3,11,2,11,2,11,2,10,2,10,2,10
306,0,1,2,6,2,6,2,6,2,5,2,5,2,5,2,5,2,5,2,5,2,5
307,1,1,4,11,3,7,3,6,2,6,2,6,2,6,2,6,2,6,2,6,2,6
308,0,1,3,6,2,6,2,6,2,6,2,5,2,5,2,5,2,5,2,5,2,5
309,0,1,2,10,2,9,2,9,2,8,2,7,2,7,2,7,2,7,2,7,2,7
310,1,1,4,6,2,6,2,6,2,6,2,6,2,6,2,5,2,5,2,5,2,5
311,0,1,3,20,3,19,3,19,3,18,2,17,2,16,2,16,2,15,2,15,2,15
312,1,1,23,47,3,16,3,15,3,14,3,14,3,14,3,14,3,14,2,13,2,13
313,1,1,4,14,3,12,3,12,3,11,2,10,2,10,2,10,2,10,2,10,2,10
314,0,1,4,29,4,29,3,28,3,27,3,27,3,24,3,24,3,22,3,22,3,22
315,1,1,10,30,3,15,3,14,3,14,3,14,3,14,2,13,2,13,2,13,2,13
316,1,1,6,9,3,7,3,7,2,7,2,7,2,7,2,6,2,6,2,6,2,6
317,0,1,3,9,2,8,2,8,2,8,2,8,2,7,2,7,2,7,2,7,2,7
318,1,1,14,22,3,13,3,12,3,11,3,11,3,11,2,11,2,10,2,10,2,10
319,0,1,3,10,3,10,2,9,2,9,2,9,2,8,2,8,2,8,2,8,2,8
320,0,1,3,18,3,17,3,15,3,15,3,15,2,15,2,15,2,14,2,14,2,14
321,1,1,12,73,3,16,3,13,3,12,3,11,2,11,2,11,2,11,2,10,2,10
322,1,1,6,36,3,28,3,22,3,21,3,21,3,20,3,19,3,18,3,17,3,17
323,1,1,23,61,3,17,3,13,3,13,3,13,2,13,2,13,2,13,2,12,2,12
324,1,1,6,20,3,18,3,16,3,14,3,13,3,13,2,13,2,13,2,13,2,13
325,0,1,3,16,3,15,3,12,3,11,3,11,3,11,3,11,3,11,3,10,2,10
326,0,1,2,9,2,8,2,8,2,7,2,7,2,7,2,7,2,7,2,6,2,6
327,0,1,3,14,2,5,2,5,2,5,2,4,2,4,2,4,2,4,2,4,1,4
328,0,1,2,4,1,4,1,4,1,4,1,4,1,4,1,3,1,3,1,3,1,3
329,0,1,3,10,3,9,3,9,2,9,2,9,2,8,2,8,2,8,2,8,2,8
330,0,1,3,12,3,11,2,11,2,10,2,10,2,10,2,10,2,9,2,9,2,9
331,1,1,18,39,3,12,2,11,2,11,2,11,2,11,2,11,2,11,2,11,2,11
332,1,1,12,27,3,15,3,14,3,13,3,13,3,13,3,13,3,12,3,12,3,12
333,1,1,18,53,3,21,3,15,3,15,3,14,3,14,3,14,3,14,3,13,3,13
334,0,1,3,8,2,8,2,8,2,8,2,7,2,7,2,7,2,7,2,7,2,7
335,1,1,4,39,3,13,3,13,2,11,2,11,2,10,2,10,2,9,2,9,2,9
336,1,1,12,19,3,13,3,13,3,13,3,13,2,12,2,12,2,12,2,11,2,11
337,0,1,3,14,3,13,3,13,3,12,2,11,2,10,2,10,2,10,2,10,2,10
338,1,1,5,10,2,7,2,7,2,7,2,7,2,7,2,6,2,6,2,6,2,6
339,1,1,11,26,3,14,3,13,3,13,3,13,2,13,2,13,2,12,2,12,2,12
340,0,1,2,8,2,7,2,7,2,6,2,6,2,6,2,6,2,6,2,6,2,6
341,0,1,3,6,2,6,2,6,2,6,2,6,2,6,2,6,2,6,2,5,2,5
342,0,1,3,16,3,13,3,13,3,13,3,12,3,12,2,12,2,12,2,12,2,12
343,1,1,3,6,2,5,2,5,2,5,2,5,2,5,2,5,2,5,2,5,2,5
344,0,1,3,9,3,9,3,8,2,8,2,8,2,8,2,8,2,8,2,8,2,7
345,0,1,3,9,3,9,3,8,3,7,2,7,2,7,2,7,2,7,2,7,2,6
346,0,1,2,6,2,6,2,6,2,6,2,6,2,6,2,5,2,5,2,5,2,5
347,1,1,39,52,3,20,3,20,3,20,3,20,3,19,3,19,3,18,3,18,3,18
348,1,1,6,27,3,20,3,20,3,19,3,19,3,19,3,18,3,18,3,18,3,17
349,0,1,3,8,2,6,2,6,2,6,2,5,2,5,2,5,2,5,2,5,2,5
350,0,1,2,12,2,11,2,9,2,9,2,8,2,8,2,8,2,7,2,7,2,7
351,1,1,4,7,3,7,3,6,2,6,2,6,2,5,2,5,2,5,2,5,2,5
352,1,1,4,10,3,9,2,9,2,9,2,9,2,8,2,8,2,7,2,7,2,7
353,1,1,15,43,3,31,3,27,3,27,3,24,3,24,3,23,3,22,3,22,3,21
354,0,1,3,13,3,12,3,11,3,11,3,10,2,10,2,9,2,9,2,9,2,9
355,0,1,3,58,3,33,3,29,3,29,3,28,3,27,3,23,3,22,2,22,2,22
356,1,1,7,63,3,24,3,18,3,17,3,17,3,16,3,15,3,14,3,14,3,13
357,1,1,15,31,3,17,3,14,3,12,3,12,3,12,3,12,2,11,2,11,2,11
358,1,1,7,19,3,11,2,10,2,10,2,10,2,10,2,10,2,9,2,9,2,8
359,1,1,4,57,3,23,3,21,3,20,3,18,3,17,3,17,3,17,3,17,2,16
360,1,1,12,18,3,17,3,16,3,15,2,15,2,15,2,14,2,14,2,14,2,13
361,1,1,13,15,3,11,3,11,2,11,2,11,2,11,2,10,2,10,2,10,2,9
362,0,1,3,12,3,9,3,9,2,9,2,9,2,9,2,8,2,8,2,8,2,8
363,1,1,27,37,3,32,3,19,3,17,3,16,3,16,3,16,3,16,2,16,2,16
364,0,1,2,13,2,11,2,11,2,11,2,11,2,11,2,10,2,10,2,10,2,10
365,1,1,4,10,3,9,3,9,2,9,2,9,2,9,2,8,2,8,2,8,2,8
366,0,1,3,14,3,13,3,13,3,13,3,13,3,12,3,12,2,12,2,12,2,11
367,0,1,3,15,3,15,3,15,3,15,3,14,3,13,3,13,2,12,2,12,2,12
368,1,1,3,7,2,6,2,6,2,6,2,6,2,6,2,6,2,6,2,6,2,6
369,1,1,3,10,2,8,2,7,2,7,2,7,2,7,2,7,2,7,2,7,2,7
370,0,1,3,18,3,10,3,9,3,9,2,9,2,9,2,9,2,9,2,9,2,9
371,1,1,11,30,3,12,3,11,3,11,3,11,3,11,2,11,2,10,2,10,2,10
372,1,1,4,14,2,11,2,10,2,9,2,8,2,8,2,8,2,8,2,8,2,8
373,0,1,3,19,3,16,3,14,3,13,3,12,2,12,2,12,2,12,2,12,2,11
374,1,1,5,26,3,22,3,19,3,18,3,17,3,17,3,17,3,16,2,16,2,16
375,1,1,9,18,3,10,3,9,3,9,3,9,3,9,2,9,2,9,2,8,2,8
376,1,1,19,64,3,14,3,13,3,13,3,13,2,13,2,13,2,12,2,12,2,12
377,1,1,4,18,2,11,2,10,2,10,2,9,2,9,2,9,2,9,2,8,2,8
378,1,1,19,47,3,10,3,9,2,9,2,9,2,9,2,8,2,8,2,8,2,8
379,1,1,10,23,3,12,3,11,3,10,3,10,2,10,2,10,2,10,2,10,2,9
380,0,1,3,9,3,8,2,8,2,8,2,8,2,8,2,8,2,8,2,8,2,8
381,1,1,9,12,3,8,2,7,2,7,2,7,2,7,2,7,2,7,2,6,2,6
382,1,1,4,12,3,12,3,11,3,11,3,10,3,10,2,9,2,9,2,9,2,9
383,0,1,4,17,3,15,3,15,3,15,3,14,2,14,2,14,2,14,2,13,2,13
384,0,1,4,28,3,27,3,23,3,21,3,19,3,19,3,17,3,16,2,16,2,16
385,1,1,7,14,3,9,2,8,2,8,2,7,2,7,2,7,2,7,2,7,2,7
386,1,1,6,13,3,10,3,9,3,8,2,7,2,7,2,7,2,7,2,7,2,7
387,0,1,2,6,2,6,2,6,2,6,2,6,2,5,2,5,2,5,2,5,2,5
388,1,1,7,24,3,16,3,14,3,13,3,13,3,13,2,13,2,13,2,13,2,13
389,0,1,4,21,3,16,3,16,3,15,3,15,3,15,2,15,2,15,2,15,2,14
390,1,1,18,20,3,13,3,13,3,12,3,12,3,12,3,12,3,12,3,11,2,11
391,0,1,2,3,2,3,2,3,2,3,2,3,1,3,1,3,1,2,1,2,1,2
392,0,1,3,22,3,17,3,15,3,15,3,15,3,14,3,14,3,14,3,14,2,14
393,1,1,7,9,3,7,2,7,2,7,2,7,2,7,2,6,2,6,2,6,2,6
394,1,1,6,11,3,11,2,10,2,10,2,9,2,9,2,9,2,9,2,9,2,9
395,0,1,2,8,2,8,2,8,2,8,2,7,2,7,2,7,2,7,2,7,2,7
396,1,1,18,45,3,15,3,14,3,14,3,14,2,13,2,13,2,13,2,12,2,12
397,1,1,12,35,3,12,2,11,2,10,2,10,2,9,2,9,2,9,2,9,2,8
398,0,1,3,9,3,9,3,9,3,8,3,8,2,8,2,8,2,8,2,8,2,8
399,1,1,8,16,3,10,2,9,2,8,2,8,2,8,2,8,2,7,2,7,2,7
400,1,1,10,24,3,11,2,10,2,10,2,10,2,10,2,10,2,9,2,9,2,9
401,1,1,13,41,3,22,3,19,3,19,3,17,3,16,3,16,3,16,2,16,2,16
402,1,1,9,15,3,12,3,11,3,10,3,10,2,10,2,9,2,9,2,9,2,9
403,0,1,2,9,2,9,2,9,2,9,2,8,2,8,2,8,2,8,2,8,2,8
404,0,1,3,13,3,11,2,10,2,10,2,10,2,10,2,10,2,10,2,9,2,9
405,1,1,5,16,3,15,2,15,2,14,2,14,2,13,2,13,2,12,2,12,2,11
406,1,1,39,56,3,24,3,21,3,20,3,20,3,20,3,19,3,19,2,19,2,18
407,0,1,2,8,2,6,2,6,2,6,2,5,2,5,2,5,2,5,2,5,2,5
408,1,1,9,15,3,11,3,10,3,10,2,10,2,10,2,9,2,9,2,9,2,9
409,1,1,14,29,3,12,3,11,3,11,3,11,3,11,3,11,3,11,3,11,2,10
410,1,1,6,22,3,16,3,15,2,14,2,13,2,13,2,13,2,13,2,12,2,12
411,1,1,4,34,3,24,3,22,3,17,3,17,3,16,3,16,3,16,3,15,3,15
412,1,1,14,59,3,16,3,15,3,15,3,13,3,13,3,13,3,13,3,13,2,13
413,1,1,6,23,3,18,3,18,3,17,3,17,3,17,3,17,3,15,2,15,2,15
414,1,1,10,13,3,10,3,10,2,10,2,9,2,9,2,9,2,9,2,9,2,9
415,0,1,2,15,2,9,2,9,2,8,2,8,2,8,2,8,2,8,2,7,2,7
416,1,1,6,12,3,11,3,10,2,10,2,10,2,10,2,9,2,9,2,8,2,8
417,1,1,11,30,3,14,2,13,2,12,2,12,2,12,2,12,2,12,2,11,2,11
418,1,1,16,35,3,12,3,12,3,12,2,12,2,12,2,12,2,12,2,12,2,12
419,1,1,4,10,3,10,3,10,3,9,3,9,3,9,3,9,2,9,2,8,2,8
420,1,1,16,49,3,17,3,16,3,16,3,15,3,14,3,14,3,14,3,14,2,14
421,1,1,9,33,3,25,3,21,3,20,3,20,3,18,3,18,3,18,3,17,3,17
422,1,1,14,39,3,18,3,17,3,16,3,15,3,15,2,15,2,14,2,14,2,14
423,1,1,56,70,3,21,3,17,3,17,3,17,3,17,2,16,2,16,2,15,2,15
424,1,1,23,57,3,21,3,16,3,15,3,15,3,14,3,14,2,14,2,14,2,14
425,1,1,26,31,3,14,3,12,2,11,2,11,2,11,2,11,2,11,2,10,2,10
426,0,1,2,10,2,8,2,7,2,6,2,6,2,6,2,6,2,5,2,5,2,5
427,1,1,7,70,3,12,3,11,2,11,2,11,2,11,2,10,2,10,2,10,2,10
428,0,1,3,10,2,9,2,9,2,8,2,8,2,7,2,7,2,7,2,7,2,7
429,0,1,3,9,3,8,2,7,2,7,2,7,2,7,2,7,2,7,2,7,2,7
430,1,1,7,10,3,9,3,9,2,9,2,9,2,8,2,8,2,8,2,8,2,8
431,1,1,4,13,3,12,3,11,3,11,2,11,2,10,2,10,2,10,2,10,2,9
432,0,1,3,16,3,16,3,16,3,15,3,14,2,14,2,14,2,14,2,13,2,13
433,1,1,6,17,3,13,3,12,2,12,2,12,2,12,2,11,2,11,2,11,2,11
434,1,1,5,20,3,19,3,18,3,16,3,14,3,14,3,14,3,14,2,14,2,14
435,1,1,4,9,3,8,3,8,3,8,2,8,2,8,2,8,2,8,2,8,2,8
436,1,1,14,23,3,13,3,10,3,10,3,10,3,10,2,10,2,9,2,9,2,9
437,1,1,5,8,3,7,2,7,2,7,2,7,2,6,2,6,2,6,2,6,2,6
438,0,1,2,10,2,8,2,8,2,8,2,8,2,8,2,8,2,8,2,7,2,7
439,0,1,2,10,2,9,2,9,2,8,2,8,2,8,2,8,2,8,2,8,2,8
440,0,1,2,6,2,6,2,6,2,6,2,6,2,6,2,6,2,5,2,5,2,5
441,0,1,3,9,3,8,3,8,3,8,3,8,3,8,3,8,2,8,2,8,2,8
442,0,1,2,7,2,7,2,6,2,6,2,6,2,6,2,5,2,5,2,5,2,5
443,0,1,3,21,3,18,3,17,3,17,3,17,3,17,3,16,2,16,2,16,2,16
444,0,1,3,16,3,16,3,16,3,16,3,15,3,15,3,14,3,14,3,14,3,14
445,0,1,3,20,3,20,3,17,3,16,3,16,3,16,3,16,3,15,3,15,3,15
446,1,1,4,11,3,9,3,9,2,8,2,8,2,8,2,8,2,8,2,8,2,8
447,1,1,7,22,3,20,3,19,3,17,3,17,3,17,3,17,3,17,3,16,2,16
448,1,1,5,10,3,10,3,10,3,9,2,8,2,8,2,8,2,8,2,8,2,8
449,1,1,4,20,3,20,3,19,3,19,3,19,3,18,3,18,3,18,3,18,2,17
450,1,1,5,13,3,11,3,11,2,9,2,9,2,9,2,9,2,9,2,8,2,8
451,1,1,15,39,3,14,2,13,2,13,2,12,2,11,2,11,2,11,2,10,2,10
452,1,1,8,29,3,23,3,22,3,19,3,18,3,17,3,17,3,17,3,16,3,16
453,1,1,12,23,3,21,3,21,3,19,3,19,3,18,3,17,3,17,3,17,3,16
454,0,1,3,14,3,13,3,12,3,12,2,11,2,11,2,11,2,11,2,11,2,11
455,1,1,29,30,3,13,3,11,3,10,3,10,2,10,2,9,2,9,2,9,2,9
456,1,1,32,51,3,19,3,17,3,15,3,14,3,14,3,14,2,14,2,14,2,13
457,0,1,3,13,3,10,2,9,2,9,2,9,2,9,2,9,2,9,2,8,2,8
458,0,1,3,17,3,16,3,15,3,15,3,15,3,15,2,15,2,15,2,15,2,15
459,1,1,5,8,3,7,3,7,3,7,2,7,2,7,2,7,2,7,2,7,2,7
460,1,1,6,23,3,21,3,20,3,19,3,19,3,18,3,17,3,17,3,17,3,17
461,0,1,3,11,3,10,3,10,3,9,3,9,3,9,2,9,2,9,2,9,2,9
462,1,1,8,17,4,12,3,11,3,11,3,11,2,11,2,11,2,10,2,10,2,10
463,0,1,2,8,2,6,2,5,2,5,2,5,2,5,2,5,2,5,2,5,2,5
464,1,1,7,16,3,11,3,9,3,8,3,8,2,8,2,8,2,7,2,7,2,7
465,1,1,4,8,4,8,2,7,2,7,2,7,2,6,2,6,2,6,2,6,2,6
466,1,1,5,14,3,10,2,10,2,9,2,9,2,9,2,9,2,9,2,9,2,9
467,0,1,3,6,2,6,2,6,2,6,2,6,2,6,2,5,2,5,2,5,2,5
468,0,1,2,15,2,12,2,10,2,10,2,10,2,10,2,10,2,10,2,10,2,10
469,1,1,6,8,3,7,3,7,2,7,2,7,2,6,2,6,2,6,2,6,2,6
470,0,1,2,9,2,8,2,8,2,7,2,7,2,6,2,6,2,6,2,6,2,6
471,0,1,3,13,3,11,3,11,3,11,2,11,2,11,2,10,2,10,2,10,2,10
472,0,1,3,18,3,18,3,15,3,15,3,14,3,14,3,14,2,13,2,12,2,12
473,1,1,6,21,3,10,3,10,3,10,3,10,2,10,2,10,2,9,2,9,2,9
474,1,1,16,105,4,23,3,21,3,18,3,18,3,17,3,17,3,16,3,16,3,16
475,1,1,5,15,3,14,3,13,3,11,2,11,2,11,2,10,2,10,2,10,2,10
476,1,1,9,14,3,9,3,8,2,8,2,7,2,7,2,7,2,6,2,6,2,6
477,1,1,9,13,3,10,3,9,2,9,2,8,2,8,2,7,2,7,2,7,2,7
478,0,1,3,9,2,7,2,7,2,7,2,7,2,6,2,6,2,6,2,6,2,6
479,0,1,3,8,3,7,2,7,2,7,2,7,2,7,2,7,2,6,2,6,2,6
480,0,1,3,19,3,18,3,17,3,16,2,16,2,15,2,14,2,14,2,14,2,14
481,1,1,17,23,3,13,3,10,2,9,2,9,2,9,2,8,2,8,2,8,2,8
482,1,1,26,83,3,19,3,18,3,17,3,17,2,16,2,15,2,15,2,15,2,15
483,1,1,3,10,2,10,2,9,2,9,2,8,2,8,2,8,2,8,2,8,2,8
484,1,1,10,17,3,12,3,12,3,12,3,12,2,11,2,11,2,11,2,10,2,10
485,1,1,7,10,3,9,2,7,2,7,2,7,2,7,2,6,2,6,2,6,2,6
486,1,1,5,41,3,18,3,17,3,17,3,17,3,16,3,16,3,16,3,15,3,15
487,1,1,27,70,3,14,3,14,3,13,3,13,2,13,2,13,2,12,2,11,2,11
488,1,1,11,46,3,13,3,12,3,12,3,11,2,11,2,11,2,10,2,10,2,10
489,0,1,3,19,3,17,3,16,3,15,3,15,3,15,3,15,2,15,2,14,2,14
490,0,1,4,29,3,22,3,17,3,16,3,15,3,15,3,15,3,14,2,13,2,13
491,0,1,2,12,2,9,2,9,2,8,2,8,2,8,2,8,2,7,2,7,2,7
492,0,1,3,13,3,13,3,12,2,12,2,11,2,11,2,11,2,11,2,11,2,11
493,1,1,25,61,3,26,3,18,3,18,3,17,3,17,3,17,3,16,3,16,2,16
494,1,1,10,18,3,12,3,11,3,10,3,10,3,10,3,10,2,10,2,9,2,9
495,0,1,3,17,3,16,3,15,3,15,3,15,2,14,2,14,2,14,2,14,2,14
496,0,1,3,9,3,8,2,8,2,7,2,7,2,7,2,7,2,7,2,7,2,7
497,0,1,3,16,3,15,3,15,3,13,3,13,3,12,3,12,3,12,2,12,2,11
498,0,1,3,17,3,16,3,16,3,16,3,15,2,15,2,14,2,14,2,14,2,13
499,0,1,3,12,3,11,3,11,2,11,2,10,2,10,2,10,2,10,2,10,2,10
500,0,1,3,19,3,16,3,16,3,16,3,15,3,15,3,15,3,15,3,15,3,15
501,0,1,3,9,3,8,2,8,2,8,2,8,2,7,2,7,2,7,2,7,2,7
502,1,1,12,29,3,12,3,12,3,12,3,11,3,10,3,10,3,9,3,9,3,9
503,1,1,5,39,3,15,3,14,3,14,2,14,2,14,2,14,2,13,2,13,2,13
504,1,1,9,36,3,23,3,20,3,20,3,18,3,18,3,18,3,18,3,17,3,17
505,1,1,4,35,3,30,3,25,3,25,3,22,3,22,3,21,3,21,3,20,3,19
506,0,1,3,14,3,12,3,11,3,11,3,11,2,11,2,10,2,10,2,10,2,10
507,1,1,17,133,3,24,3,21,3,18,3,18,3,17,3,17,3,16,3,16,3,16
508,1,1,14,98,3,13,3,13,3,13,3,13,2,12,2,12,2,12,2,12,2,12
509,0,0,3,12,3,11,3,10,2,10,2,10,2,9,2,9,2,9,2,9,2,9
510,0,0,3,9,3,8,3,8,3,8,3,8,2,8,2,8,2,8,2,8,2,7
511,0,0,3,10,3,10,3,10,3,10,3,10,3,10,3,10,2,10,2,10,2,10
512,0,0,2,8,2,8,2,7,2,7,2,7,2,7,2,7,2,7,2,6,2,6
513,0,0,2,8,2,5,2,5,2,4,2,4,2,4,2,4,2,4,2,4,1,4
514,0,0,2,6,2,6,2,5,2,5,2,5,2,5,2,5,2,5,2,5,2,5
515,0,0,3,9,2,8,2,8,2,8,2,8,2,8,2,7,2,7,2,7,2,7
516,0,0,3,18,3,16,3,16,3,15,3,15,3,15,3,15,3,14,2,13,2,13
517,0,0,3,19,3,17,3,17,3,15,3,15,3,15,3,15,3,14,2,14,2,14
518,0,0,3,16,3,16,3,15,3,15,3,15,2,15,2,15,2,14,2,14,2,14
519,0,0,3,17,3,15,3,14,3,14,3,13,3,13,3,13,2,13,2,13,2,13
520,0,0,2,9,2,9,2,9,2,8,2,7,2,7,2,7,2,7,2,7,2,7
521,0,0,3,20,3,18,3,17,3,16,3,15,3,15,3,15,3,15,3,15,3,14
522,0,0,4,16,3,16,3,15,3,14,3,12,3,12,3,12,3,12,3,12,2,12
523,0,0,3,14,3,14,2,13,2,11,2,11,2,11,2,11,2,11,2,11,2,11
524,0,0,3,9,2,8,2,8,2,7,2,7,2,7,2,7,2,6,2,6,2,6
525,0,0,3,13,2,7,2,7,2,7,2,6,2,6,2,6,2,6,2,6,2,6
526,0,0,3,10,3,9,3,9,2,9,2,8,2,8,2,8,2,8,2,8,2,8
527,0,0,3,16,3,15,3,14,3,14,3,13,3,13,2,13,2,13,2,12,2,12
528,0,0,3,15,3,14,3,12,3,11,3,11,2,11,2,10,2,10,2,10,2,10
529,0,0,3,21,3,17,3,16,3,16,2,16,2,15,2,15,2,14,2,14,2,14
530,0,0,3,10,2,9,2,8,2,8,2,7,2,7,2,7,2,7,2,7,2,7
531,0,0,3,10,3,9,3,8,2,8,2,8,2,8,2,8,2,8,2,7,2,7
532,0,0,3,13,3,13,3,13,3,13,3,12,3,12,3,12,3,12,3,12,3,11
533,0,0,3,7,2,7,2,7,2,6,2,6,2,6,2,6,2,6,2,6,2,6
534,0,0,3,14,3,11,3,10,3,10,2,10,2,10,2,10,2,10,2,10,2,10
535,0,0,3,13,3,12,3,11,2,11,2,11,2,11,2,10,2,10,2,10,2,10
536,0,0,3,17,3,14,3,14,3,13,2,13,2,13,2,13,2,12,2,12,2,12
537,0,0,3,7,3,7,3,7,2,7,2,7,2,7,2,7,2,7,2,7,2,7
538,0,0,2,9,2,8,2,8,2,8,2,7,2,7,2,6,2,6,2,6,2,6
539,0,0,3,11,2,10,2,10,2,10,2,10,2,8,2,8,2,8,2,8,2,8
540,0,0,3,19,3,19,3,17,3,16,3,16,3,16,3,16,3,16,3,16,2,15
541,0,0,3,20,3,20,3,20,3,19,3,17,3,17,3,16,3,16,2,15,2,15
542,0,0,2,7,2,7,2,7,2,6,2,6,2,6,2,5,2,5,2,5,2,5
543,0,0,3,12,3,10,3,10,2,9,2,9,2,9,2,9,2,9,2,9,2,9
544,0,0,3,10,2,9,2,9,2,9,2,9,2,9,2,8,2,8,2,8,2,8
545,0,0,3,8,3,7,2,7,2,7,2,7,2,6,2,6,2,6,2,6,2,6
546,0,0,2,5,2,5,2,5,2,5,2,5,2,5,2,4,2,4,2,4,2,4
547,0,0,3,11,3,10,2,9,2,8,2,8,2,8,2,8,2,8,2,8,2,7
548,0,0,3,15,3,15,3,14,3,14,3,14,3,14,2,13,2,13,2,13,2,13
549,0,0,3,13,3,9,3,9,3,8,3,8,3,7,2,7,2,7,2,7,2,7
550,0,0,3,25,3,19,3,18,3,18,3,17,3,16,3,16,3,16,3,16,3,16
551,0,0,3,15,3,13,3,10,3,10,2,9,2,9,2,9,2,9,2,9,2,9
552,0,0,3,10,2,10,2,9,2,8,2,8,2,8,2,8,2,8,2,8,2,7
553,0,0,3,15,3,12,3,11,2,11,2,9,2,9,2,9,2,9,2,9,2,8
554,0,0,3,8,2,7,2,7,2,7,2,6,2,6,2,6,2,6,2,6,2,6
555,0,0,3,17,3,12,3,12,3,12,3,11,3,11,3,11,2,11,2,11,2,11
556,0,0,3,18,3,17,3,16,3,15,3,15,3,15,3,14,3,14,3,14,3,14
557,0,0,3,11,3,10,2,10,2,10,2,10,2,10,2,10,2,10,2,9,2,9
558,0,0,3,9,3,8,3,8,3,8,2,8,2,7,2,7,2,7,2,7,2,7
559,0,0,3,18,3,17,3,17,3,16,3,15,3,15,3,15,3,15,3,14,2,14
560,0,0,3,7,2,7,2,6,2,6,2,6,2,6,2,6,2,5,2,5,2,5
561,0,0,3,14,3,13,3,12,2,11,2,11,2,11,2,11,2,11,2,10,2,10
562,0,0,3,9,3,8,3,7,3,7,3,7,2,7,2,6,2,6,2,6,2,6
563,0,0,3,15,3,15,3,15,3,15,3,15,3,15,2,14,2,13,2,12,2,12
564,0,0,2,10,2,10,2,9,2,9,2,9,2,8,2,8,2,8,2,8,2,7
565,0,0,3,10,3,7,3,7,2,7,2,7,2,6,2,6,2,6,2,6,2,6
566,0,0,3,16,3,12,3,11,3,10,2,10,2,10,2,9,2,9,2,9,2,9
567,0,0,3,28,3,26,3,25,3,24,3,22,3,22,3,22,3,21,3,20,3,20
568,0,0,3,11,3,9,3,8,2,8,2,8,2,8,2,8,2,8,2,7,2,7
569,0,0,3,24,3,22,3,21,3,20,3,20,3,19,3,18,3,18,3,18,3,18
570,0,0,3,8,2,8,2,8,2,8,2,7,2,7,2,7,2,7,2,7,2,7
571,0,0,3,13,3,12,3,12,3,11,3,11,2,11,2,11,2,11,2,10,2,10
572,0,0,2,9,2,9,2,9,2,8,2,8,2,8,2,8,2,8,2,8,2,8
573,0,0,3,24,3,23,3,22,3,21,3,19,3,19,3,19,3,18,3,18,3,18
574,0,0,3,24,3,19,3,17,3,16,3,16,3,16,2,15,2,15,2,15,2,15
575,0,0,4,29,3,29,3,28,3,25,3,24,3,23,3,23,3,22,3,21,3,21
576,0,0,3,9,3,7,2,7,2,7,2,7,2,6,2,6,2,6,2,6,2,6
577,0,0,3,92,3,62,3,55,3,51,3,50,3,49,3,46,3,43,3,42,3,41
578,0,0,3,12,3,10,2,10,2,9,2,9,2,9,2,8,2,8,2,8,2,8
579,0,0,2,7,2,6,2,6,2,6,2,6,2,6,2,6,2,6,2,6,2,5
580,0,0,3,8,2,8,2,8,2,8,2,8,2,8,2,8,2,7,2,7,2,7
581,0,0,3,14,3,14,3,13,3,13,3,13,2,13,2,12,2,12,2,12,2,12
582,0,0,3,9,3,7,2,7,2,7,2,7,2,6,2,6,2,6,2,6,2,6
583,0,0,4,9,3,9,3,8,3,8,3,8,2,8,2,8,2,8,2,8,2,8
584,0,0,3,11,3,10,3,10,3,8,2,8,2,8,2,8,2,8,2,8,2,8
585,0,0,3,11,2,10,2,9,2,9,2,9,2,9,2,9,2,9,2,8,2,8
586,0,0,3,17,3,16,3,16,3,15,3,15,3,14,3,14,3,14,3,14,3,13
587,0,0,3,17,3,17,3,14,3,14,3,13,3,13,3,13,3,13,3,13,2,13
588,0,0,2,11,2,10,2,10,2,10,2,10,2,9,2,9,2,9,2,8,2,8
589,0,0,3,13,3,10,3,10,3,9,3,9,2,9,2,9,2,9,2,8,2,8
590,0,0,2,26,2,16,2,12,2,12,2,12,2,11,2,11,2,11,2,11,2,10
591,0,0,3,9,3,9,3,8,3,8,2,8,2,7,2,7,2,7,2,7,2,7
592,0,0,3,14,3,13,3,13,3,12,2,11,2,11,2,11,2,11,2,11,2,11
593,0,0,3,12,3,9,3,9,2,9,2,9,2,8,2,8,2,8,2,8,2,7
594,0,0,3,28,3,26,3,26,3,25,3,24,3,24,3,24,3,23,3,23,3,22
595,0,0,3,11,3,10,3,10,3,9,3,9,2,9,2,8,2,8,2,8,2,8
596,0,0,3,24,3,22,3,20,3,16,3,15,3,15,3,15,3,15,2,15,2,15
597,0,0,2,8,2,6,2,6,2,6,2,6,2,6,2,6,2,6,2,6,2,6
598,0,0,3,8,3,6,3,6,2,6,2,6,2,6,2,6,2,6,2,6,2,6
599,0,0,4,19,3,16,3,13,2,12,2,12,2,12,2,12,2,12,2,11,2,11
600,0,0,3,18,3,17,3,16,3,16,3,15,3,15,3,14,3,14,3,14,3,14
601,0,0,3,20,3,16,3,15,3,14,2,14,2,13,2,13,2,12,2,12,2,12
602,0,0,3,11,2,10,2,10,2,10,2,9,2,9,2,8,2,8,2,8,2,8
603,0,0,3,18,3,16,3,16,3,15,3,15,3,15,3,15,3,15,3,15,3,14
604,0,0,3,6,2,6,2,6,2,5,2,5,2,5,2,4,2,4,2,4,2,4
605,0,0,3,21,3,17,3,17,3,16,3,16,3,16,2,16,2,15,2,14,2,14
606,0,0,3,25,3,21,3,19,3,18,3,18,3,18,3,17,3,17,3,17,3,17
607,0,0,3,15,3,14,3,14,3,13,3,13,3,12,2,12,2,12,2,12,2,12
608,0,0,3,21,3,17,3,17,3,17,3,16,2,16,2,16,2,16,2,15,2,15
609,0,0,3,16,3,15,3,14,2,14,2,14,2,13,2,13,2,13,2,13,2,13
610,0,0,3,14,2,14,2,14,2,13,2,12,2,12,2,12,2,12,2,11,2,11
611,0,0,5,17,3,16,3,16,3,16,3,15,3,15,3,15,3,15,3,15,2,15
612,0,0,3,13,3,12,2,11,2,10,2,10,2,9,2,9,2,9,2,9,2,9
613,0,0,3,16,3,15,3,14,3,14,2,13,2,13,2,13,2,13,2,13,2,13
614,0,0,3,14,3,11,2,11,2,10,2,10,2,9,2,9,2,9,2,9,2,9
615,0,0,3,10,3,10,3,9,3,9,2,9,2,8,2,8,2,8,2,8,2,8
616,0,0,3,12,3,12,3,12,3,12,3,12,3,12,2,12,2,12,2,11,2,11
617,0,0,3,12,3,11,3,11,3,11,3,11,2,11,2,10,2,10,2,10,2,10
618,0,0,3,11,2,10,2,10,2,10,2,9,2,9,2,9,2,9,2,9,2,9
619,0,0,3,15,3,12,2,11,2,10,2,10,2,9,2,9,2,9,2,9,2,9
620,0,0,3,16,3,16,2,16,2,16,2,15,2,15,2,14,2,14,2,14,2,14
621,0,0,2,9,2,8,2,7,2,7,2,7,2,7,2,6,2,6,2,6,2,6
622,0,0,3,12,3,11,2,11,2,11,2,11,2,10,2,10,2,10,2,10,2,10
623,0,0,3,13,3,11,3,11,3,10,2,10,2,10,2,10,2,10,2,10,2,10
624,0,0,2,5,2,5,2,4,1,4,1,4,1,4,1,4,1,4,1,4,1,4
625,0,0,3,13,3,11,3,11,2,11,2,11,2,10,2,10,2,10,2,10,2,9
626,0,0,3,24,3,22,3,21,3,19,3,19,3,18,3,18,2,17,2,17,2,16
627,0,0,3,10,3,10,2,9,2,9,2,8,2,8,2,8,2,8,2,8,2,8
628,0,0,4,18,3,15,3,14,3,14,3,14,3,13,2,12,2,12,2,12,2,12
629,0,0,3,20,3,20,3,19,3,18,3,18,3,18,3,17,3,17,2,17,2,16
630,0,0,3,21,3,16,3,15,2,13,2,13,2,13,2,13,2,13,2,13,2,13
631,0,0,3,20,3,18,3,16,3,16,3,15,3,15,3,15,2,15,2,15,2,15
632,0,0,3,11,2,11,2,11,2,11,2,10,2,10,2,10,2,10,2,10,2,9
633,0,0,3,16,3,15,3,15,2,14,2,14,2,14,2,14,2,14,2,13,2,13
634,0,0,3,14,2,12,2,12,2,12,2,11,2,11,2,11,2,11,2,11,2,11
635,0,0,3,14,3,12,2,11,2,11,2,11,2,11,2,11,2,10,2,9,2,9
636,0,0,3,8,3,7,3,7,2,7,2,7,2,7,2,7,2,6,2,6,2,6
637,0,0,3,14,3,12,3,12,3,12,2,12,2,12,2,12,2,11,2,11,2,11
638,0,0,4,16,3,15,3,15,3,15,3,15,3,15,3,14,3,14,3,14,3,13
639,0,0,3,18,3,17,3,17,3,17,3,17,3,16,3,16,3,16,3,15,2,15
640,0,0,3,14,3,11,3,10,3,10,2,10,2,10,2,10,2,10,2,10,2,10
641,0,0,3,22,3,19,3,17,3,17,3,17,2,17,2,16,2,16,2,16,2,16
642,0,0,3,7,3,7,2,7,2,7,2,6,2,6,2,6,2,6,2,6,2,6
643,0,0,3,22,3,21,3,20,3,18,3,17,3,17,2,16,2,16,2,16,2,16
644,0,0,3,21,3,21,3,18,3,18,3,17,3,17,3,17,2,16,2,16,2,16
645,0,0,4,12,3,12,3,12,3,11,3,11,2,11,2,10,2,10,2,10,2,10
646,0,0,3,16,3,14,3,14,3,13,3,13,2,12,2,12,2,12,2,12,2,12
647,0,0,3,14,2,13,2,13,2,12,2,12,2,12,2,12,2,12,2,12,2,11
648,0,0,3,12,2,10,2,10,2,10,2,9,2,9,2,9,2,9,2,9,2,9
649,0,0,3,17,3,16,3,15,3,15,3,14,3,14,3,14,3,14,3,13,2,13
650,0,0,3,18,3,15,3,15,3,14,3,14,2,13,2,13,2,13,2,13,2,13
651,0,0,3,10,2,9,2,8,2,8,2,8,2,7,2,7,2,7,2,7,2,7
652,0,0,4,15,3,14,3,14,3,14,3,14,3,14,2,14,2,13,2,13,2,13
653,0,0,3,11,3,10,3,10,3,10,2,9,2,9,2,8,2,8,2,8,2,8
654,0,0,3,29,3,29,3,28,3,25,3,24,3,23,3,22,3,21,3,21,2,20
655,0,0,3,21,3,21,3,20,3,20,3,18,3,18,3,17,3,17,3,17,2,17
656,0,0,3,9,3,9,2,8,2,8,2,8,2,8,2,8,2,8,2,8,2,8
657,0,0,3,14,3,13,2,12,2,12,2,12,2,12,2,12,2,12,2,11,2,11
658,0,0,3,8,3,7,2,7,2,6,2,6,2,6,2,6,2,6,2,6,2,6
659,0,0,2,7,2,7,2,6,2,6,2,6,2,6,2,5,2,5,2,5,2,5
660,0,0,3,12,3,12,2,10,2,10,2,10,2,10,2,9,2,9,2,9,2,9
661,0,0,3,7,2,6,2,5,2,5,2,5,2,5,2,5,2,5,2,5,2,5
662,0,0,3,12,3,12,3,12,3,12,3,11,3,11,2,11,2,11,2,11,2,11
663,0,0,3,13,2,12,2,11,2,11,2,11,2,11,2,10,2,10,2,10,2,10
664,0,0,4,13,3,13,3,12,3,12,3,12,3,12,3,12,3,12,2,12,2,11
665,0,0,3,11,3,11,3,10,3,10,2,9,2,9,2,8,2,8,2,8,2,8
666,0,0,3,24,3,19,3,18,3,16,3,16,3,15,2,15,2,15,2,14,2,14
667,0,0,3,10,3,8,3,8,3,8,3,8,3,8,2,8,2,8,2,8,2,7
668,0,0,3,15,3,15,3,14,3,14,3,13,3,13,3,13,2,13,2,13,2,13
669,0,0,3,12,3,12,3,11,3,11,2,11,2,11,2,11,2,11,2,10,2,10
670,0,0,2,9,2,9,2,9,2,9,2,8,2,8,2,8,2,8,2,8,2,8
671,0,0,3,4,2,4,2,4,2,4,1,4,1,4,1,4,1,4,1,4,1,4
672,0,0,2,5,2,4,2,4,2,4,1,4,1,4,1,4,1,4,1,4,1,4
673,0,0,4,16,3,16,2,16,2,15,2,13,2,12,2,12,2,12,2,11,2,11
674,0,0,3,7,2,6,2,6,2,6,2,6,2,6,2,6,2,6,2,6,2,5
675,0,0,3,8,3,7,2,7,2,7,2,7,2,7,2,7,2,7,2,7,2,7
676,0,0,3,19,3,18,3,17,3,17,2,16,2,16,2,15,2,15,2,15,2,15
677,0,0,2,14,2,12,2,11,2,9,2,9,2,9,2,8,2,8,2,8,2,8
678,0,0,3,8,2,8,2,8,2,7,2,7,2,6,2,6,2,6,2,6,2,6
679,0,0,3,11,2,10,2,10,2,9,2,8,2,8,2,8,2,8,2,7,2,7
680,0,0,3,13,3,12,3,12,2,11,2,11,2,11,2,11,2,11,2,11,2,11
681,0,0,3,8,3,8,3,8,2,8,2,8,2,8,2,8,2,7,2,7,2,7
682,0,0,3,20,3,17,3,16,3,16,3,14,3,14,2,14,2,14,2,14,2,14
683,0,0,3,19,3,16,3,15,3,15,3,15,2,14,2,14,2,14,2,14,2,14
684,0,0,3,13,3,11,3,11,3,11,2,10,2,10,2,9,2,9,2,9,2,9
685,0,0,3,16,3,14,3,13,3,12,3,11,2,11,2,11,2,11,2,11,2,11
686,0,0,3,16,3,15,3,15,2,15,2,15,2,14,2,14,2,14,2,13,2,13
687,0,0,3,14,3,14,3,14,3,14,3,13,3,13,2,12,2,12,2,12,2,12
688,0,0,3,8,2,8,2,8,2,8,2,8,2,7,2,7,2,7,2,7,2,7
689,0,0,3,20,3,18,3,16,3,15,3,15,2,15,2,15,2,15,2,15,2,15
690,0,0,4,19,4,17,3,17,3,17,3,16,3,15,3,15,3,15,3,15,3,15
691,0,0,3,17,3,16,3,16,3,15,3,15,3,14,3,14,3,14,2,14,2,13
692,0,0,3,18,3,15,3,14,2,13,2,13,2,13,2,13,2,13,2,13,2,13
693,0,0,3,13,3,12,3,11,3,11,3,10,2,10,2,10,2,10,2,10,2,9
694,0,0,3,28,3,22,3,22,3,22,2,20,2,20,2,19,2,19,2,17,2,17
695,0,0,3,29,3,22,3,21,3,21,3,20,3,19,3,19,3,19,3,19,3,19
696,0,0,3,21,3,15,3,15,3,15,3,15,3,15,3,14,3,14,2,14,2,14
697,0,0,3,26,3,19,3,17,3,17,3,17,3,17,3,17,3,17,3,17,2,17
698,0,0,3,13,3,10,3,10,3,10,3,10,2,10,2,9,2,9,2,9,2,9
699,0,0,3,11,3,11,3,10,3,10,3,10,2,10,2,10,2,9,2,9,2,9
700,0,0,3,15,3,15,3,14,3,14,3,14,3,14,3,13,3,13,3,13,2,13
701,0,0,3,27,3,27,3,25,3,25,3,24,3,24,3,24,3,22,3,22,3,22
702,0,0,3,27,3,18,3,17,3,17,2,16,2,16,2,16,2,16,2,16,2,15
703,0,0,3,23,3,21,3,21,3,20,3,20,3,20,3,18,3,18,3,18,2,18
704,0,0,3,6,3,6,2,6,2,6,2,6,2,6,2,6,2,6,2,6,2,5
705,0,0,3,10,2,10,2,9,2,9,2,9,2,9,2,9,2,8,2,8,2,8
706,0,0,3,10,3,7,2,7,2,7,2,7,2,7,2,7,2,7,2,7,2,7
707,0,0,2,9,2,7,2,7,2,6,2,6,2,6,2,6,2,6,2,6,2,6
708,0,0,4,10,3,9,3,9,3,9,3,8,2,8,2,8,2,8,2,8,2,8
709,0,0,3,13,3,12,3,12,3,12,3,12,3,12,2,11,2,11,2,11,2,11
710,0,0,3,9,3,8,3,8,2,8,2,8,2,7,2,7,2,7,2,7,2,7
711,0,0,2,10,2,9,2,9,2,8,2,8,2,8,2,8,2,8,2,7,2,7
712,0,0,3,15,3,14,3,13,3,13,3,12,3,12,3,12,2,11,2,11,2,11
713,0,0,2,9,2,9,2,8,2,7,2,7,2,7,2,7,2,7,2,7,2,7
714,0,0,3,11,3,10,3,10,3,9,2,9,2,9,2,9,2,9,2,9,2,9
715,0,0,3,18,3,18,3,18,3,15,3,14,2,14,2,14,2,13,2,13,2,13
716,0,0,2,10,2,9,2,8,2,8,2,8,2,8,2,8,2,8,2,8,2,7
717,0,0,3,8,3,8,2,8,2,7,2,7,2,7,2,7,2,7,2,7,2,7
718,0,0,3,13,2,12,2,12,2,12,2,11,2,10,2,10,2,10,2,10,2,10
719,0,0,3,10,3,9,3,9,3,9,2,9,2,9,2,9,2,9,2,9,2,9
720,0,0,3,9,2,8,2,8,2,8,2,8,2,7,2,7,2,7,2,7,2,7
721,0,0,3,10,3,10,3,10,3,10,3,10,2,10,2,10,2,9,2,9,2,9
722,0,0,3,17,3,13,3,13,3,12,2,12,2,12,2,11,2,11,2,11,2,10
723,0,0,20,61,3,10,3,10,3,10,3,10,3,9,3,9,2,9,2,9,2,9
724,0,0,12,30,3,16,3,15,3,14,3,13,3,13,2,12,2,12,2,12,2,12
725,0,0,16,37,3,9,3,9,2,8,2,8,2,8,2,8,2,7,2,7,2,7
726,0,0,3,8,3,8,2,7,2,7,2,7,2,6,2,6,2,6,2,6,2,6
727,0,0,3,9,2,9,2,8,2,8,2,8,2,8,2,8,2,8,2,7,2,7
728,0,0,3,13,3,12,3,12,3,12,3,11,2,11,2,10,2,10,2,10,2,10
729,0,0,3,15,3,13,3,12,3,12,3,12,3,12,3,12,2,11,2,11,2,11
730,0,0,3,10,3,8,3,7,2,7,2,7,2,7,2,7,2,7,2,7,2,7
731,0,0,3,8,3,8,3,8,2,7,2,7,2,7,2,7,2,7,2,7,2,7
732,0,0,3,15,3,14,3,14,3,14,3,13,2,12,2,12,2,12,2,12,2,12
733,0,0,3,8,3,8,2,8,2,8,2,7,2,7,2,7,2,6,2,6,2,6
734,0,0,3,8,3,8,2,8,2,7,2,7,2,7,2,7,2,7,2,7,2,7
735,0,0,3,27,3,21,3,19,3,19,3,18,3,18,3,18,3,17,3,17,3,17
736,0,0,4,22,3,22,3,21,3,19,3,19,3,18,3,17,3,17,3,16,3,16
737,0,0,3,10,3,10,2,9,2,8,2,7,2,7,2,7,2,7,2,7,2,7
738,0,0,3,19,3,16,3,16,3,16,3,15,3,15,3,15,2,14,2,14,2,14
739,0,0,4,15,4,14,3,14,3,13,3,13,3,12,3,12,3,12,2,12,2,11
740,0,0,3,14,3,12,3,11,3,11,2,11,2,10,2,10,2,10,2,10,2,10
741,0,0,3,9,3,9,2,8,2,8,2,8,2,8,2,8,2,8,2,8,2,8
742,0,0,3,7,3,7,3,7,3,7,3,7,2,7,2,7,2,7,2,7,2,6
743,0,0,3,20,3,18,3,17,3,17,3,17,3,17,3,15,3,15,3,15,3,15
744,0,0,3,19,3,16,3,15,3,15,3,15,3,15,3,15,2,14,2,14,2,13
745,0,0,3,10,2,8,2,7,2,7,2,7,2,6,2,6,2,6,2,6,2,6
746,0,0,3,9,2,8,2,7,2,7,2,7,2,7,2,7,2,7,2,7,2,7
747,0,0,2,10,2,8,2,8,2,8,2,8,2,7,2,7,2,7,2,7,2,6
748,0,0,3,10,2,9,2,9,2,9,2,8,2,8,2,8,2,8,2,8,2,7
749,0,0,3,22,3,22,3,22,3,22,2,20,2,20,2,20,2,19,2,19,2,18
750,0,0,3,10,2,8,2,7,2,7,2,7,2,7,2,7,2,7,2,7,2,7
751,0,0,3,14,3,13,2,13,2,13,2,13,2,12,2,12,2,12,2,12,2,11
752,0,0,2,6,2,6,2,6,2,6,2,6,2,6,2,6,2,5,2,5,2,5
753,0,0,3,11,2,11,2,10,2,10,2,9,2,8,2,8,2,8,2,8,2,8
754,0,0,3,7,2,7,2,6,2,6,2,6,2,6,2,6,2,6,2,5,2,5
755,0,0,3,13,2,12,2,12,2,11,2,11,2,11,2,11,2,10,2,10,2,10
756,0,0,2,16,2,15,2,12,2,12,2,11,2,11,2,11,2,11,2,11,2,10
757,0,0,3,8,3,8,3,8,3,8,3,8,3,8,2,8,2,7,2,7,2,7
758,0,0,3,12,3,12,3,11,3,11,3,11,3,11,3,10,3,10,2,10,2,10
759,0,0,3,25,3,23,3,22,3,21,3,21,3,20,3,20,3,20,3,20,3,19
760,0,0,3,22,3,21,3,21,3,19,3,18,3,18,3,17,3,17,3,17,3,17
761,0,0,3,11,3,10,3,10,2,9,2,9,2,9,2,9,2,9,2,8,2,8
762,0,0,3,13,3,13,2,12,2,12,2,12,2,12,2,12,2,12,2,11,2,11
763,0,0,2,9,2,9,2,8,2,7,2,7,2,7,2,7,2,7,2,7,2,6
764,0,0,4,13,3,13,3,13,3,12,3,12,3,11,2,11,2,10,2,10,2,10
765,0,0,3,16,3,15,3,15,3,13,2,13,2,12,2,12,2,11,2,11,2,11
766,0,0,3,19,3,16,3,16,3,16,3,15,2,15,2,14,2,14,2,14,2,14
767,0,0,3,15,3,14,3,14,3,14,3,13,3,13,3,13,3,13,2,13,2,13
768,0,0,3,15,3,13,3,13,3,12,3,12,2,12,2,12,2,12,2,12,2,11
769,0,0,3,16,3,16,3,15,3,14,3,14,2,13,2,13,2,13,2,13,2,12
770,0,0,3,19,3,19,3,18,3,18,3,17,3,17,2,17,2,16,2,16,2,16
771,0,0,3,28,3,21,3,20,3,20,3,20,3,20,3,19,3,19,3,19,3,19
772,0,0,3,17,3,16,3,15,3,14,3,14,2,14,2,13,2,12,2,12,2,12
773,0,0,2,7,2,5,2,5,2,5,2,5,2,4,2,4,2,4,2,4,2,4
774,0,0,2,8,2,8,2,8,2,7,2,7,2,7,2,7,2,7,2,7,2,7
775,0,0,3,29,3,19,3,18,3,17,3,17,3,16,3,16,3,15,3,15,3,15
776,0,0,3,20,3,20,3,19,3,19,3,18,3,17,3,17,3,17,3,17,3,16
777,0,0,3,48,3,27,3,27,3,25,3,24,3,23,3,23,3,22,3,22,3,22
778,0,0,3,16,3,15,3,14,3,13,2,13,2,12,2,12,2,12,2,11,2,11
779,0,0,3,12,3,12,3,12,3,11,3,11,3,11,2,11,2,11,2,10,2,10
780,0,0,3,16,3,15,3,14,3,14,3,14,2,13,2,13,2,13,2,13,2,13
781,0,0,3,8,2,8,2,8,2,8,2,7,2,7,2,7,2,7,2,7,2,7
782,0,0,3,15,3,15,3,15,3,14,3,14,3,14,3,14,2,14,2,14,2,13
783,0,0,2,10,2,9,2,9,2,9,2,9,2,9,2,8,2,8,2,8,2,8
784,0,0,3,23,3,19,3,16,3,16,3,16,3,15,3,15,3,15,3,15,2,14
785,0,0,3,11,3,10,3,10,3,10,3,10,2,9,2,9,2,9,2,9,2,9
786,0,0,3,23,3,18,3,18,3,18,3,17,3,17,3,17,3,16,2,16,2,16
787,0,0,3,11,2,10,2,10,2,9,2,9,2,9,2,9,2,8,2,8,2,8
788,0,0,3,7,2,7,2,7,2,6,2,6,2,6,2,5,2,5,2,5,2,5
789,0,0,3,12,3,11,3,11,3,11,2,11,2,11,2,10,2,10,2,10,2,10
790,0,0,3,19,3,18,3,16,3,13,3,12,2,12,2,12,2,12,2,12,2,11
791,0,0,3,12,3,11,3,11,3,11,3,10,3,10,2,10,2,10,2,10,2,10
792,0,0,3,27,3,25,3,23,3,22,3,21,3,21,3,21,3,20,3,20,3,20
793,0,0,3,10,3,9,2,8,2,8,2,7,2,7,2,7,2,7,2,7,2,7
794,0,0,3,23,3,15,3,14,3,14,3,13,3,13,3,13,2,13,2,13,2,13
795,0,0,3,15,3,14,3,14,3,13,2,13,2,13,2,12,2,12,2,12,2,11
796,0,0,3,13,3,13,3,12,2,12,2,12,2,12,2,12,2,11,2,11,2,11
797,0,0,3,22,3,18,3,17,3,16,3,16,3,16,3,16,3,15,3,14,3,14
798,0,0,3,10,2,9,2,9,2,9,2,8,2,8,2,8,2,8,2,8,2,8
799,0,0,3,14,3,12,3,12,3,12,3,12,3,12,2,12,2,11,2,11,2,11
800,0,0,2,13,2,12,2,11,2,11,2,10,2,10,2,10,2,10,2,10,2,10
801,0,0,3,15,2,15,2,13,2,13,2,12,2,12,2,11,2,11,2,11,2,11
802,0,0,3,11,3,10,3,10,3,10,2,9,2,9,2,9,2,9,2,9,2,9
803,0,0,3,17,3,15,3,14,3,13,3,13,3,13,3,12,3,12,2,12,2,12
804,0,0,3,11,2,10,2,10,2,9,2,9,2,9,2,9,2,9,2,9,2,9
805,0,0,3,9,2,9,2,9,2,9,2,8,2,8,2,8,2,8,2,8,2,8
806,0,0,3,23,3,22,3,19,3,18,3,18,3,17,3,17,2,17,2,17,2,17
807,0,0,3,22,3,18,3,18,3,18,3,18,3,17,2,17,2,16,2,16,2,15
808,0,0,3,16,3,15,3,15,3,15,3,14,3,14,2,14,2,14,2,14,2,14
809,0,0,3,23,3,22,3,21,3,20,3,19,3,18,3,18,3,18,2,18,2,18
810,0,0,3,8,3,8,3,7,3,7,2,7,2,6,2,6,2,6,2,6,2,6
811,0,0,3,26,3,16,3,16,3,15,3,15,3,14,3,14,2,14,2,14,2,14
812,0,0,4,10,3,10,3,8,3,8,2,8,2,8,2,8,2,7,2,7,2,7
813,0,0,3,16,3,10,3,9,2,9,2,9,2,9,2,9,2,9,2,9,2,9
814,0,0,3,9,3,9,3,9,3,9,3,9,3,8,2,8,2,8,2,8,2,8
815,0,0,3,7,2,6,2,6,2,6,2,6,2,6,2,5,2,5,2,5,2,5
816,0,0,3,17,3,17,3,16,3,15,3,15,3,14,3,14,3,13,2,13,2,13
817,0,0,3,13,3,11,3,11,3,11,2,11,2,11,2,10,2,10,2,10,2,10
818,0,0,3,25,3,20,3,16,3,15,3,15,3,15,3,15,2,14,2,14,2,14
819,0,0,3,8,2,8,2,8,2,7,2,7,2,7,2,7,2,7,2,6,2,6
820,0,0,3,16,3,14,3,14,3,13,3,13,3,13,2,13,2,13,2,13,2,13
821,0,0,3,13,3,11,3,11,3,11,3,11,2,11,2,11,2,11,2,11,2,11
822,0,0,3,9,2,8,2,8,2,8,2,8,2,8,2,8,2,8,2,8,2,7
823,0,0,3,15,2,14,2,14,2,14,2,13,2,13,2,12,2,12,2,12,2,12
824,0,0,3,6,2,6,2,6,2,6,2,6,2,6,2,6,2,6,2,5,2,5
825,0,0,9,45,3,16,3,15,3,13,2,12,2,12,2,12,2,12,2,12,2,12
826,0,0,7,26,3,12,2,10,2,10,2,9,2,8,2,8,2,8,2,8,2,8
827,0,0,8,16,3,13,3,12,3,11,3,11,2,11,2,11,2,10,2,10,2,10
828,0,0,7,27,3,18,3,18,3,18,3,17,3,16,3,16,3,15,3,15,3,15
829,0,0,3,16,3,16,3,14,3,13,3,13,3,13,3,12,3,12,2,12,2,12
830,0,0,3,13,3,10,2,8,2,8,2,7,2,7,2,7,2,7,2,7,2,7
831,0,0,3,11,2,11,2,11,2,10,2,10,2,10,2,10,2,10,2,10,2,9
832,0,0,3,14,3,14,3,13,3,13,3,13,2,12,2,12,2,12,2,12,2,12
833,0,0,3,17,3,16,3,15,3,15,2,14,2,14,2,14,2,14,2,14,2,13
834,0,0,3,12,3,12,3,11,3,11,3,11,2,11,2,10,2,10,2,10,2,10
835,0,0,3,22,3,21,3,20,2,20,2,20,2,19,2,16,2,16,2,16,2,16
836,0,0,3,11,3,11,3,10,2,10,2,10,2,10,2,10,2,10,2,9,2,9
837,0,0,3,12,3,11,3,11,3,11,3,10,3,10,2,10,2,10,2,10,2,10
838,0,0,3,12,3,12,3,12,3,12,3,11,2,11,2,11,2,11,2,11,2,11
839,0,0,3,12,3,11,3,11,3,10,3,10,2,9,2,9,2,9,2,9,2,9
840,0,0,3,21,3,20,3,20,3,17,3,16,3,16,3,16,3,16,2,16,2,16
841,0,0,3,9,2,9,2,9,2,8,2,8,2,8,2,8,2,8,2,8,2,7
842,0,0,3,14,3,13,3,12,2,12,2,12,2,12,2,12,2,11,2,11,2,11
843,0,0,3,10,2,8,2,8,2,8,2,8,2,8,2,8,2,7,2,7,2,7
844,0,0,3,16,3,14,3,13,3,13,3,12,2,12,2,12,2,11,2,11,2,11
845,0,0,3,10,2,8,2,8,2,8,2,7,2,7,2,7,2,7,2,7,2,6
846,0,0,3,13,3,11,2,10,2,10,2,9,2,9,2,9,2,9,2,9,2,9
847,0,0,3,11,3,11,3,11,2,11,2,11,2,11,2,10,2,10,2,10,2,10
848,0,0,3,9,3,9,2,8,2,8,2,8,2,8,2,8,2,8,2,7,2,7
849,0,0,3,9,3,9,2,9,2,8,2,8,2,8,2,8,2,8,2,8,2,8
850,0,0,3,19,3,18,3,18,3,16,3,16,3,16,3,15,3,15,3,15,3,15
851,0,0,3,8,2,8,2,8,2,7,2,7,2,7,2,7,2,7,2,7,2,7
852,0,0,2,8,2,7,2,7,2,7,2,7,2,7,2,7,2,7,2,7,2,7
853,0,0,3,7,2,7,2,7,2,6,2,6,2,6,2,6,2,6,2,6,2,6
854,0,0,3,7,2,7,2,7,2,7,2,7,2,7,2,7,2,6,2,6,2,6
855,0,0,3,9,3,9,3,9,2,8,2,8,2,8,2,8,2,8,2,8,2,8
856,0,0,3,12,3,10,2,10,2,10,2,9,2,9,2,9,2,9,2,9,2,9
857,0,0,3,19,3,17,3,16,3,16,3,16,3,16,3,16,2,15,2,15,2,15
858,0,0,3,14,3,10,3,10,2,10,2,10,2,9,2,9,2,9,2,9,2,9
859,0,0,3,9,3,9,3,8,3,8,3,8,2,8,2,8,2,8,2,8,2,8
860,0,0,3,19,3,18,3,16,3,15,2,15,2,15,2,15,2,15,2,14,2,14
861,0,0,3,11,3,11,3,11,2,11,2,11,2,11,2,10,2,10,2,10,2,10
862,0,0,3,9,3,9,2,9,2,9,2,9,2,8,2,8,2,8,2,8,2,7
863,0,0,3,20,3,20,3,17,3,16,3,16,3,15,3,14,3,14,3,14,3,14
864,0,0,2,8,2,8,2,7,2,7,2,7,2,7,2,7,2,7,2,6,2,6
865,0,0,3,13,3,13,3,11,3,11,3,11,3,11,2,11,2,11,2,11,2,10
866,0,0,3,13,3,12,3,12,3,12,3,12,2,11,2,11,2,11,2,11,2,11
867,0,0,3,15,3,14,3,14,3,14,3,13,3,13,3,13,3,13,2,13,2,13
868,0,0,3,9,2,8,2,8,2,8,2,8,2,8,2,7,2,7,2,7,2,7
869,0,0,3,18,3,18,3,17,3,15,3,15,2,15,2,14,2,14,2,14,2,14
870,0,0,2,7,2,7,2,7,2,6,2,6,2,6,2,6,2,6,2,5,2,5
871,0,0,3,12,2,12,2,10,2,9,2,9,2,8,2,8,2,8,2,7,2,7
872,0,0,3,15,3,15,2,15,2,14,2,13,2,13,2,12,2,12,2,12,2,12
873,0,0,3,22,3,20,3,19,3,19,3,18,3,18,3,17,3,17,3,17,2,16
874,0,0,3,24,3,19,3,18,3,17,2,17,2,15,2,15,2,15,2,14,2,14
875,0,0,2,7,2,7,2,7,2,7,2,7,2,7,2,6,2,6,2,6,2,6
876,0,0,3,19,3,16,3,15,3,12,3,12,3,11,2,10,2,10,2,10,2,10
877,0,0,3,16,3,16,3,14,3,14,3,14,3,14,3,13,3,13,3,13,2,13
878,0,0,3,27,3,25,3,21,3,20,3,20,3,20,3,19,3,19,3,18,2,18
879,0,0,3,21,3,20,3,16,3,15,3,15,3,15,3,14,3,14,3,14,3,14
880,0,0,3,9,3,8,2,8,2,8,2,8,2,8,2,8,2,7,2,7,2,7
881,0,0,4,10,3,10,3,9,3,8,2,8,2,8,2,8,2,8,2,8,2,8
882,0,0,3,10,2,9,2,9,2,9,2,8,2,8,2,8,2,8,2,8,2,8
883,0,0,3,8,2,8,2,6,2,5,2,5,2,5,2,5,2,5,2,5,2,5
884,0,0,3,9,3,8,2,7,2,7,2,7,2,7,2,7,2,6,2,6,2,6
885,0,0,2,9,2,8,2,8,2,8,2,8,2,7,2,7,2,7,2,7,2,7
886,0,0,3,15,3,14,3,14,3,14,3,13,3,12,2,12,2,12,2,12,2,11
887,0,0,3,11,3,10,3,10,2,9,2,9,2,9,2,9,2,9,2,9,2,9
888,0,0,3,22,3,21,3,19,3,19,3,19,3,19,3,18,3,18,3,18,3,18
889,0,0,3,9,3,8,3,8,3,8,2,8,2,8,2,8,2,8,2,7,2,7
890,0,0,3,13,3,13,3,12,2,11,2,11,2,10,2,10,2,10,2,10,2,10
891,0,0,3,14,3,13,3,13,3,12,3,12,3,12,3,12,2,12,2,12,2,12
892,0,0,3,12,3,10,3,10,2,10,2,10,2,10,2,9,2,9,2,9,2,9
893,0,0,3,17,3,14,3,13,3,13,3,12,2,12,2,12,2,12,2,12,2,11
894,0,0,3,18,3,17,3,17,3,16,3,16,2,16,2,16,2,15,2,15,2,15
895,0,0,3,13,3,8,2,8,2,8,2,7,2,7,2,7,2,7,2,7,2,7
896,0,0,3,9,2,9,2,7,2,7,2,7,2,7,2,7,2,7,2,7,2,6
897,0,0,2,9,2,9,2,8,2,8,2,8,2,8,2,8,2,8,2,8,2,7
898,0,0,2,15,2,13,2,13,2,13,2,12,2,12,2,11,2,11,2,11,2,10
899,0,0,3,13,3,8,2,8,2,8,2,8,2,8,2,8,2,8,2,8,2,8
900,0,0,3,15,3,12,3,12,2,12,2,12,2,12,2,12,2,11,2,11,2,11
901,0,0,3,11,3,8,2,7,2,7,2,7,2,7,2,7,2,7,2,7,2,7
902,0,0,3,22,3,21,3,21,3,20,3,18,3,18,3,18,3,17,3,17,3,17
903,0,0,2,5,2,5,2,4,2,4,2,4,2,4,2,4,2,4,2,4,1,4
904,0,0,3,20,3,17,3,17,3,17,3,16,3,16,3,15,2,15,2,14,2,14
905,0,0,3,25,3,20,3,20,3,18,3,18,3,18,3,17,3,17,3,17,2,17
906,0,0,3,13,3,11,3,11,2,11,2,10,2,10,2,10,2,10,2,10,2,10
907,0,0,3,15,3,14,3,13,3,12,2,12,2,12,2,12,2,11,2,11,2,11
908,0,0,3,6,2,5,2,5,2,4,2,4,2,4,2,4,2,4,2,4,2,4
909,0,0,2,4,1,3,1,3,1,3,1,3,1,3,1,3,1,3,1,3,1,3
910,0,0,4,20,4,19,3,18,3,17,3,17,3,17,3,17,3,16,3,16,3,16
911,0,0,3,10,3,10,3,10,3,9,3,9,3,9,2,9,2,8,2,8,2,8
912,0,0,2,4,2,4,2,3,2,3,2,3,2,3,1,3,1,3,1,3,1,3
913,0,0,12,21,3,12,3,12,3,12,3,12,2,11,2,11,2,11,2,11,2,11
914,0,0,3,16,3,14,3,14,2,13,2,13,2,12,2,12,2,12,2,12,2,12
915,0,0,3,8,2,7,2,6,2,6,2,6,2,6,2,6,2,6,2,6,2,6
916,0,0,3,8,3,8,2,8,2,8,2,8,2,8,2,7,2,7,2,7,2,7
917,0,0,3,12,2,11,2,11,2,11,2,10,2,10,2,10,2,9,2,9,2,9
918,0,0,2,8,2,8,2,8,2,8,2,8,2,7,2,7,2,7,2,7,2,7
919,0,0,3,11,3,9,3,9,3,9,2,8,2,8,2,8,2,8,2,8,2,8
920,0,0,2,7,2,7,2,7,2,6,2,6,2,6,2,6,2,6,2,6,2,6
921,0,0,3,16,3,15,3,15,3,14,3,14,2,14,2,13,2,13,2,13,2,13
922,0,0,3,20,3,18,3,17,3,17,3,16,2,15,2,15,2,15,2,15,2,14
923,0,0,3,9,2,9,2,8,2,8,2,8,2,8,2,7,2,7,2,7,2,7
924,0,0,3,5,2,5,2,5,2,4,2,4,2,4,2,4,2,4,2,4,2,4
925,0,0,2,8,2,6,2,6,2,6,2,5,2,5,2,5,2,5,2,5,2,5
926,0,0,2,9,2,9,2,8,2,8,2,8,2,7,2,7,2,7,2,7,2,7
927,0,0,2,4,2,4,2,4,2,4,2,4,2,4,1,4,1,4,1,4,1,4
928,0,0,3,9,3,7,2,7,2,6,2,6,2,6,2,6,2,6,2,6,2,6
929,0,0,3,13,3,12,3,12,2,11,2,11,2,11,2,11,2,11,2,11,2,11
930,0,0,3,10,3,9,3,8,2,7,2,7,2,7,2,7,2,7,2,7,2,7
931,0,0,3,13,3,12,3,11,2,11,2,11,2,11,2,11,2,11,2,11,2,10
932,0,0,3,11,3,11,3,10,2,10,2,10,2,10,2,9,2,9,2,9,2,9
933,0,0,3,31,3,21,3,20,3,17,3,17,3,17,3,17,2,16,2,16,2,16
934,0,0,3,9,3,9,3,8,2,8,2,8,2,8,2,8,2,8,2,8,2,7
935,0,0,3,11,3,10,3,9,3,9,3,9,2,8,2,8,2,8,2,8,2,8
936,0,0,3,16,3,15,3,15,3,14,3,14,3,14,3,14,3,14,2,13,2,13
937,0,0,2,8,2,7,2,7,2,7,2,7,2,6,2,6,2,6,2,6,2,6
938,0,0,3,11,3,10,3,10,2,10,2,9,2,9,2,9,2,8,2,8,2,8
939,0,0,3,11,2,10,2,10,2,10,2,10,2,10,2,10,2,10,2,9,2,9
940,0,0,3,14,3,14,3,13,3,13,2,12,2,12,2,12,2,11,2,11,2,11
941,0,0,3,22,3,20,3,18,3,18,3,17,3,17,3,17,3,17,3,17,2,17
942,0,0,3,17,3,16,3,15,3,14,3,14,3,13,3,13,3,13,2,13,2,13
943,0,0,3,7,2,7,2,6,2,6,2,6,2,6,2,6,2,6,2,6,2,6
944,0,0,4,12,3,11,3,11,3,10,2,10,2,10,2,10,2,10,2,9,2,9
945,0,0,4,17,3,16,3,15,2,15,2,15,2,14,2,14,2,14,2,14,2,13
946,0,0,3,15,3,15,3,14,3,14,3,13,3,13,3,12,2,12,2,12,2,12
947,0,0,3,14,3,14,3,13,3,13,3,13,3,12,3,12,2,12,2,12,2,12
948,0,0,4,17,3,15,3,14,3,14,3,14,3,13,3,12,3,12,3,12,2,12
949,0,0,3,21,2,20,2,20,2,20,2,19,2,18,2,18,2,17,2,17,2,17
950,0,0,2,7,2,7,2,6,2,6,2,6,2,6,2,6,2,5,2,5,2,5
951,0,0,3,14,3,14,3,13,3,12,3,12,2,12,2,12,2,12,2,11,2,11
952,0,0,3,14,3,14,3,14,3,14,2,14,2,14,2,14,2,13,2,13,2,13
953,0,0,3,15,3,14,3,13,3,12,3,12,3,12,3,12,2,11,2,11,2,11
954,0,0,3,19,3,18,3,18,3,17,3,17,3,17,3,16,3,16,3,16,3,16
955,0,0,4,14,3,12,3,12,3,12,2,12,2,11,2,11,2,11,2,11,2,11
956,0,0,2,9,2,9,2,9,2,9,2,8,2,8,2,8,2,8,2,8,2,8
957,0,0,3,25,3,17,3,17,3,17,3,17,3,16,2,16,2,15,2,15,2,14
958,0,0,3,19,3,19,3,16,3,15,3,14,3,13,3,13,3,12,2,12,2,12
959,0,0,3,14,3,12,3,11,3,11,3,11,2,11,2,11,2,10,2,10,2,10
960,0,0,3,15,3,14,3,14,3,14,3,13,3,13,3,13,3,13,3,13,2,13
961,0,0,3,10,3,9,2,9,2,8,2,8,2,8,2,8,2,7,2,7,2,7
962,0,0,3,12,3,11,3,11,3,11,3,11,3,10,3,10,3,10,2,10,2,10
963,0,0,3,19,3,16,3,15,3,15,3,15,3,14,3,14,3,14,2,13,2,13
964,0,0,3,8,3,8,2,8,2,8,2,7,2,7,2,7,2,7,2,6,2,6
965,0,0,2,14,2,14,2,12,2,12,2,11,2,10,2,10,2,10,2,10,2,10
966,0,0,3,26,3,22,3,18,3,18,3,17,3,17,3,17,3,16,3,16,3,16
967,0,0,2,7,2,7,2,7,2,7,2,7,2,7,2,7,2,7,2,7,2,7
968,0,0,3,12,3,9,3,9,2,9,2,9,2,8,2,8,2,8,2,8,2,8
969,0,0,3,13,3,13,3,12,2,12,2,11,2,11,2,11,2,11,2,11,2,10
970,0,0,3,9,3,9,3,8,2,8,2,8,2,8,2,8,2,8,2,8,2,7
971,0,0,3,16,3,16,3,15,3,15,3,15,3,14,2,14,2,14,2,14,2,14
972,0,0,3,16,3,15,3,14,3,14,3,14,3,13,3,13,3,13,2,13,2,13
973,0,0,3,17,3,14,3,12,3,12,3,10,2,10,2,9,2,9,2,9,2,9
974,0,0,3,10,3,10,3,10,3,9,3,9,2,9,2,9,2,9,2,8,2,8
975,0,0,3,16,3,14,3,14,3,14,3,13,2,13,2,13,2,13,2,13,2,12
976,0,0,3,16,3,15,3,15,3,15,2,12,2,12,2,12,2,12,2,11,2,11
977,0,0,3,23,3,17,3,17,3,15,3,15,2,14,2,14,2,14,2,13,2,13
978,0,0,3,15,3,14,3,9,3,9,2,9,2,9,2,9,2,9,2,8,2,8
979,0,0,2,11,2,11,2,10,2,9,2,8,2,8,2,8,2,8,2,8,2,8
980,0,0,3,13,3,12,3,12,3,11,3,11,2,11,2,11,2,11,2,10,2,10
981,0,0,3,9,3,8,3,8,2,8,2,8,2,8,2,8,2,8,2,8,2,8
982,0,0,3,22,3,19,3,18,3,18,3,18,3,18,3,17,3,17,3,17,3,17
983,0,0,3,13,3,12,3,12,3,12,2,12,2,11,2,11,2,11,2,11,2,11
984,0,0,3,12,2,10,2,10,2,9,2,9,2,9,2,9,2,9,2,9,2,9
985,0,0,3,17,3,14,3,14,2,13,2,13,2,13,2,13,2,13,2,13,2,13
986,0,0,4,22,3,21,3,21,3,20,3,20,3,18,3,18,3,17,3,17,3,17
987,0,0,3,9,3,8,3,8,2,7,2,7,2,7,2,7,2,7,2,7,2,7
988,0,1,3,11,3,10,3,10,3,10,2,9,2,9,2,9,2,9,2,8,2,8
989,0,1,2,10,2,10,2,9,2,8,2,8,2,8,2,8,2,8,2,8,2,8
990,0,0,3,11,2,10,2,7,2,7,2,7,2,7,2,7,2,6,2,6,2,6
991,0,0,3,10,2,9,2,9,2,9,2,8,2,8,2,8,2,8,2,8,2,7
992,0,0,3,12,3,12,3,11,3,11,3,10,2,10,2,10,2,9,2,9,2,9
993,0,0,3,21,3,16,3,16,2,16,2,13,2,13,2,13,2,12,2,12,2,12
994,0,0,3,8,3,8,3,8,3,8,3,8,2,8,2,8,2,8,2,7,2,7
995,0,0,3,16,3,16,3,15,3,14,2,14,2,13,2,13,2,13,2,13,2,13
996,0,0,3,23,3,20,2,19,2,16,2,16,2,15,2,15,2,15,2,15,2,15
997,0,0,4,19,3,18,3,17,3,17,3,16,3,16,3,16,3,16,2,15,2,15
998,0,0,3,13,3,13,3,12,3,11,2,11,2,11,2,11,2,11,2,11,2,10
999,0,0,3,18,3,16,3,15,3,15,3,14,2,14,2,14,2,14,2,13,2,13
1000,0,0,3,10,3,9,3,9,2,9,2,9,2,9,2,9,2,9,2,8,2,8
1001,0,0,3,8,3,8,3,8,3,8,3,7,2,7,2,7,2,7,2,7,2,7
1002,0,0,2,10,2,9,2,9,2,9,2,8,2,8,2,8,2,8,2,8,2,8
1003,0,0,3,12,3,11,2,10,2,10,2,9,2,9,2,9,2,9,2,9,2,9
1004,0,0,3,9,2,8,2,8,2,8,2,8,2,8,2,8,2,7,2,7,2,7
1005,0,0,3,7,3,7,2,7,2,7,2,6,2,6,2,6,2,6,2,6,2,6
1006,0,0,3,11,3,11,2,10,2,9,2,9,2,9,2,9,2,9,2,9,2,9
1007,0,0,3,12,3,12,3,10,2,10,2,10,2,10,2,10,2,10,2,10,2,9
1008,0,0,3,15,3,14,2,13,2,12,2,12,2,12,2,12,2,12,2,12,2,12
1009,0,0,3,15,3,15,3,14,3,14,3,14,3,13,3,13,3,13,3,13,3,13
1010,0,0,4,16,3,15,3,14,3,13,3,13,3,12,3,12,2,12,2,12,2,12
1011,0,0,3,6,2,6,2,6,2,6,2,6,2,5,2,5,2,5,2,5,2,5
1012,0,0,3,14,3,13,3,12,3,12,3,11,3,11,3,11,2,11,2,11,2,11
1013,0,0,2,9,2,9,2,9,2,9,2,8,2,8,2,8,2,8,2,7,2,7
1014,0,0,3,17,3,16,3,16,3,14,3,14,3,14,3,14,3,14,3,13,2,13
1015,0,0,3,19,3,19,3,18,3,18,3,18,3,17,3,17,3,17,2,17,2,17
1016,0,0,2,9,2,8,2,8,2,8,2,8,2,7,2,7,2,7,2,7,2,7
1017,0,0,4,14,3,13,2,13,2,12,2,11,2,11,2,11,2,11,2,11,2,10
1018,0,0,3,14,3,14,3,13,2,13,2,13,2,12,2,12,2,12,2,11,2,11
1019,0,0,3,7,3,7,3,7,3,7,2,7,2,7,2,7,2,7,2,7,2,7
1020,0,0,3,8,3,6,2,6,2,5,2,5,2,5,2,5,2,5,2,5,2,5
1021,0,0,3,14,3,11,2,11,2,11,2,11,2,10,2,10,2,10,2,10,2,10
1022,0,0,3,12,3,12,3,11,3,11,3,11,3,11,3,11,3,11,2,11,2,10
1023,0,0,3,29,3,27,3,26,3,24,3,22,3,22,3,22,3,22,3,21,3,21
1024,0,0,4,34,3,27,3,23,3,23,3,22,3,21,3,21,3,21,3,20,3,20
1025,0,0,3,15,3,14,3,14,3,13,3,13,2,13,2,13,2,12,2,12,2,12
1026,0,0,3,10,2,9,2,8,2,8,2,8,2,8,2,8,2,8,2,8,2,8
1027,0,0,3,21,3,18,3,17,3,16,3,16,2,16,2,15,2,15,2,15,2,15
1028,0,0,3,14,3,12,3,12,3,12,2,11,2,11,2,11,2,11,2,10,2,10
1029,0,0,5,20,3,19,3,19,3,19,3,17,2,17,2,17,2,17,2,16,2,16
1030,0,0,3,10,3,9,3,9,3,8,2,8,2,8,2,8,2,8,2,8,2,8
1031,0,0,4,27,3,24,3,23,3,20,3,19,3,19,3,18,3,17,3,17,2,16
1032,0,0,3,14,3,14,3,13,3,13,3,13,3,13,3,12,2,12,2,12,2,12
1033,0,0,3,16,3,16,2,15,2,14,2,14,2,13,2,13,2,13,2,13,2,13
1034,0,0,3,16,3,16,3,16,2,16,2,15,2,14,2,14,2,14,2,14,2,13
1035,0,0,3,12,3,11,3,11,2,10,2,10,2,10,2,10,2,10,2,10,2,9
1036,0,0,3,10,3,9,2,8,2,8,2,8,2,8,2,8,2,7,2,7,2,7
1037,0,0,4,11,3,9,3,8,3,8,3,8,2,8,2,8,2,8,2,8,2,8
1038,0,0,3,16,3,16,3,16,3,15,2,15,2,15,2,15,2,14,2,14,2,14
1039,0,0,3,14,3,14,2,12,2,12,2,11,2,11,2,11,2,11,2,11,2,11
1040,0,0,3,15,3,14,3,14,3,13,3,13,2,13,2,13,2,13,2,12,2,12
1041,0,0,3,15,3,11,3,11,3,11,3,11,3,11,2,11,2,11,2,11,2,11
